<svg width="1920" height="676" viewBox="0 0 1920 676" fill="none" xmlns="http://www.w3.org/2000/svg">
<path d="M2568.25 72.4119L2500.21 83.7096L2498.72 83.9613L2497.96 84.9054L2474.53 113.197L2473.62 114.267L2474.34 115.526C2483.23 130.914 2492.12 146.838 2496.19 162.636C2497.1 166.286 2496.67 171.038 2495.33 170.944C2486.96 175.412 2487.2 180.574 2486.1 184.885C2485.09 193.193 2486.24 200.997 2487.96 208.959C2484.23 212.452 2480.12 215.977 2475.68 218.998C2473.24 220.666 2470.7 222.271 2468.12 223.498C2466.83 224.096 2465.54 224.663 2464.34 225.009C2463.05 225.418 2462.81 225.324 2459.27 226.236C2449.62 229.509 2445.46 233.978 2440.58 238.195C2436.04 242.538 2432.21 246.912 2428.58 251.632L2428.1 252.262L2427.95 253.111L2420.16 293.613L2337.63 319.607L2282.26 304.407L2230.33 281.623L2227.03 280.175L2185.72 267.934C2184.71 266.895 2183.76 266.14 2182.8 265.385C2180.27 263.622 2177.68 262.175 2175.05 260.759C2169.79 257.958 2164.49 255.44 2158.94 252.954L2158.61 252.797L2158.41 252.734C2143.21 248.108 2129.77 242.947 2111.51 240.618C2094.53 242.034 2078.56 242.065 2062.92 242.412C2055.47 241.814 2047.48 240.335 2040.07 238.667C2032.61 236.81 2025.05 235.174 2020.75 231.145C2010.9 222.9 2002.01 213.837 1993.16 204.931L1992.87 204.648L1992.59 204.553L1962.7 191.997L1971.88 162.919V162.856V162.825L1975.23 103.315L1970.11 162.73L1959.45 192.249L1959.21 192.91L1960.12 193.319L1989.91 206.631C1998.37 215.694 2006.69 224.726 2016.49 233.443C2021.66 238.446 2030.6 240.586 2037.96 242.537C2045.85 244.426 2053.55 246.062 2062.21 246.943C2078.99 246.975 2095.73 247.195 2111.03 246.062C2124.56 248.045 2139.86 253.552 2153.63 258.241C2158.7 260.664 2163.82 263.213 2168.5 265.888C2169.99 266.738 2171.28 267.619 2172.62 268.469C2163.67 271.332 2149.04 276.021 2144.69 277.406C2138.28 279.452 2111.17 285.525 2095.2 289.585C2079.23 293.644 2063.16 303.998 2048.82 308.058C2034.43 312.149 2012.1 317.215 2012.1 317.215L2018.79 327.663C2017.64 328.387 2015.3 331.503 2015.3 331.503C2015.16 331.754 2013.86 332.856 2012.62 333.8C2009.8 335.845 2005.98 338.017 2002.01 340.125C1993.97 344.311 1984.98 348.276 1975.85 352.115C1957.59 359.731 1938.22 366.906 1919.05 373.515L1915.6 374.711L1913.31 376.945C1913.31 376.945 1884.04 374.868 1869.7 375.78C1859.13 376.473 1835.94 372.13 1824.46 369.77L1821.26 368.668L1819.97 368.228L1817.67 368.354C1799.98 369.203 1781.86 369.424 1764.31 368.731C1747.15 367.913 1728.54 366.497 1718.03 361.21C1697.27 353.185 1678.67 352.367 1659.69 350.447C1640.75 349.063 1622.34 348.402 1603.12 348.402H1600.06L1595.42 349.881L1522.93 372.822L1522.03 370.399L1512.51 367.284C1488.84 359.511 1464.46 348.905 1445.14 336.947C1425.63 324.799 1410.66 311.016 1408.13 295.973C1405.35 282.913 1395.03 270.955 1382.5 262.363C1369.87 253.615 1355.53 247.352 1340.95 242.254C1319.67 235.048 1298.44 230.075 1276.2 226.394C1266.88 223.624 1257.55 220.351 1250.33 216.292C1245.7 213.68 1241.87 210.722 1240.24 207.921C1238.67 206.033 1238.95 200.431 1238.62 195.836L1235.85 140.387L1271.28 103.221L1303.7 76.7233L1305.32 75.4016L1304.17 74.0484L1277.3 41.6974L1316.7 0L1273 40.9107L1272.33 41.5401L1272.9 42.2954L1296.43 74.7407L1263.1 99.0668L1263.01 99.1612L1262.77 99.413L1222.79 136.579L1221.64 137.649L1221.6 139.159L1219.64 196.151C1219.92 200.966 1218.06 205.088 1221.12 212.264C1223.8 217.582 1228.58 221.547 1233.55 224.977L1232.35 225.575L1123.72 280.049C1109.51 285.399 1078.19 297.075 1073.27 297.861C1066.91 298.868 1050.84 307.113 1041.33 308.089C1035.78 308.655 1016.03 309.788 1000.25 310.67L961.81 311.142C954.207 310.984 947.035 311.708 940.006 312.684L875.884 315.233C875.884 315.233 858.335 319.292 850.446 316.082C844.851 313.817 810.854 305.099 791.392 300.159C789.002 299.089 786.611 297.987 784.22 296.949L757.634 285.179L754.191 283.668L753.952 283.731L703.602 253.646C694.564 248.454 685.91 243.167 676.107 238.258C666.161 233.632 655.594 229.855 645.17 226.016C634.746 222.177 624.274 218.4 614.472 214.089C605.196 209.652 594.054 205.057 594.198 197.221C589.99 181.581 583.774 166.412 577.892 151.149L574.402 151.747C580.092 166.979 586.165 182.273 590.086 197.63C590.468 199.361 590.564 201.69 592.142 203.767C593.576 205.749 595.584 207.417 597.736 208.896C602.088 211.854 606.965 214.278 611.986 216.512C621.979 221.012 632.499 224.851 642.875 228.722C653.251 232.625 663.675 236.432 673.19 240.933C682.371 245.59 691.217 251.066 700.063 256.258L747.497 285.116L708.24 293.393L708.383 292.984L700.063 293.109L560.153 295.344H559.483L559.053 295.438L498.613 310.323C496.031 307.743 493.21 305.162 490.771 302.582C486.085 297.767 482.116 293.046 479.343 289.239C473.318 280.584 467.102 276.242 460.838 271.049C448.31 261.325 435.304 252.891 422.107 244.52C396.477 228.376 370.226 213.302 343.21 198.354C330.778 184.728 317.772 171.668 303.953 158.671C289.034 145.044 274.785 131.67 254.032 118.893C248.342 115.809 243.035 112.253 231.559 109.767C220.991 107.878 213.054 108.445 205.69 109.011C191.058 110.364 178.578 113.039 166.242 115.935C141.712 121.851 119.142 128.869 96.334 136.831L94.4692 137.491L93.0347 138.341L-77.048 241.405L-215.381 292.134L-302.359 304.029L-307.523 304.753L-309.435 307.711L-372.744 406.998C-372.792 407.03 -372.84 407.061 -372.888 407.093C-373.414 407.471 -373.844 407.596 -374.274 407.848C-375.135 408.131 -373.557 407.722 -375.231 408.194C-378.339 408.981 -379.486 409.799 -381.208 410.617C-382.068 411.09 -382.69 411.593 -383.455 412.065C-434.762 424.275 -485.973 436.674 -537.137 449.137C-563.675 455.588 -590.261 462.071 -616.751 468.585C-590.165 463.172 -563.627 457.696 -537.137 452.221V552.546L-559.419 548.424L-559.515 548.392H-559.563L-654 541.721L-559.897 549.557L-537.137 554.245V2529.03H2589V68.9817V65.2998C2582.11 67.6915 2575.18 70.0832 2568.25 72.4119Z" fill="#7A87A8"/>
<path d="M2500.21 111.854L2568.25 100.557C2575.18 98.2277 2582.11 95.836 2589 93.4443V97.1263V2557.17H-537.137V582.39L-559.897 577.701L-654 569.865L-559.563 576.537H-559.515L-559.419 576.568L-537.137 580.691V480.365C-563.627 485.841 -590.165 491.317 -616.751 496.729C-590.261 490.215 -563.675 483.732 -537.137 477.281C-485.973 464.819 -434.762 452.42 -383.455 440.21C-382.69 439.738 -382.068 439.234 -381.208 438.762C-379.486 437.944 -378.339 437.126 -375.231 436.339C-373.557 435.867 -375.135 436.276 -374.274 435.993C-373.844 435.741 -373.414 435.615 -372.888 435.238L-372.744 435.143L-309.435 335.856L-307.523 332.898L-302.359 332.174L-215.381 320.278L-77.048 269.549L93.0347 166.486L94.4692 165.636L96.334 164.975C119.142 157.013 141.712 149.996 166.242 144.079C178.578 141.184 191.058 138.509 205.69 137.156C213.054 136.589 220.991 136.023 231.559 137.911C243.035 140.397 248.342 143.953 254.032 147.037C274.785 159.814 289.034 173.189 303.953 186.815C317.772 199.812 330.778 212.872 343.21 226.499C370.226 241.447 396.477 256.521 422.107 272.665C435.304 281.036 448.31 289.47 460.838 299.194C467.102 304.386 473.318 308.729 479.343 317.383C482.116 321.191 486.085 325.912 490.771 330.726C493.21 333.307 496.031 335.887 498.613 338.468L559.053 323.583L559.483 323.488H560.153L700.063 321.254L708.383 321.128L708.24 321.537L747.497 313.261L753.952 311.876L754.191 311.813L757.634 313.324L784.22 325.093C786.611 326.132 789.002 327.233 791.392 328.303C810.854 333.244 844.851 341.961 850.446 344.227C858.335 347.437 875.884 343.377 875.884 343.377L940.006 340.828C947.035 339.853 954.207 339.129 961.81 339.286L1000.25 338.814C1016.03 337.933 1035.78 336.8 1041.33 336.234C1050.84 335.258 1066.91 327.013 1073.27 326.006C1078.19 325.219 1109.51 313.544 1123.72 308.194L1232.35 253.72L1233.55 253.122L1276.2 254.538C1298.44 258.22 1319.67 263.192 1340.95 270.399C1355.53 275.497 1369.87 281.759 1382.5 290.508C1395.03 299.099 1405.35 311.058 1408.13 324.118C1410.66 339.16 1425.63 352.944 1445.14 365.091C1464.46 377.05 1488.84 387.655 1512.51 395.428L1522.03 398.544L1522.93 400.967L1595.42 378.025L1600.06 376.546H1603.12C1622.34 376.546 1640.75 377.207 1659.69 378.592C1678.67 380.512 1697.27 381.33 1718.03 389.355C1728.54 394.641 1747.15 396.058 1764.31 396.876C1781.86 397.568 1799.98 397.348 1817.67 396.498L1819.97 396.372L1821.26 396.813L1824.46 397.914C1835.94 400.275 1859.13 404.617 1869.7 403.925C1884.04 403.012 1913.31 405.09 1913.31 405.09L1915.6 402.855L1919.05 401.659C1938.22 395.051 1957.59 387.876 1975.85 380.26C1984.98 376.421 1993.97 372.455 2002.01 368.27C2005.98 366.161 2009.8 363.99 2012.62 361.944C2013.86 361 2015.16 359.899 2015.3 359.647C2015.3 359.647 2017.64 356.532 2018.79 355.808L2012.1 345.36C2012.1 345.36 2034.43 340.293 2048.82 336.202C2063.16 332.143 2079.23 321.789 2095.2 317.729C2111.17 313.67 2138.28 307.596 2144.69 305.551C2148.25 304.418 2158.68 301.077 2167.25 298.331L2172.62 296.613C2171.28 295.763 2169.99 294.882 2168.5 294.033L2185.72 296.078L2227.03 308.32L2230.33 309.768L2282.26 332.552L2337.63 347.752L2420.16 321.758L2427.95 281.256L2428.1 280.406L2428.58 279.777C2432.21 275.056 2436.04 270.682 2440.58 266.339C2445.46 262.122 2449.62 257.654 2459.27 254.381C2462.81 253.468 2463.05 253.563 2464.34 253.153C2465.54 252.807 2466.83 252.241 2468.12 251.643C2470.7 250.416 2473.24 248.811 2475.68 247.143C2480.12 244.122 2484.23 240.597 2487.96 237.104C2486.24 229.142 2485.09 221.337 2486.1 213.029C2487.2 208.718 2486.96 203.557 2495.33 199.088C2496.67 199.183 2497.1 194.431 2496.19 190.78C2492.12 174.983 2483.23 159.059 2474.34 143.67L2473.62 142.411L2474.53 141.341L2497.96 113.05L2498.72 112.106L2500.21 111.854Z" fill="#46526F"/>
</svg>
