<?xml version="1.0" encoding="utf-8"?>
<!-- Generator: Adobe Illustrator 25.3.1, SVG Export Plug-In . SVG Version: 6.00 Build 0)  -->
<svg version="1.1" id="Capa_1" xmlns="http://www.w3.org/2000/svg" xmlns:xlink="http://www.w3.org/1999/xlink" x="0px" y="0px"
	 viewBox="0 0 1920 339.9" style="enable-background:new 0 0 1920 339.9;" xml:space="preserve">
<style type="text/css">
	.st0{fill:#4B5776;}
	.st1{fill:#8E93A2;}
</style>
<path class="st0" d="M671.3,259.8C558.7,225,448.7,182.7,338.7,142.9c15.4,14.9,25.6,34.8,38.4,49.7c-87-7.5-168.9-27.4-253.3-42.3
	c17.9-14.9,40.9-27.4,61.4-37.3c-62.1-6.7-126.3-1.3-185.2,21.6v205.2h921.5c-106.7-34.7-213.3-68.8-324.4-72.6
	C622.7,262.3,645.7,264.7,671.3,259.8z"/>
<path class="st1" d="M847.9,297.1c-197-62.2-394.1-111.9-583.4-191.5c-20.5-9.9-48.6-24.9-64-24.9C134.4,76.5,61.1,96.6,0,132.3v2.3
	c58.8-22.9,123-28.3,185.2-21.6c-20.5,9.9-43.5,22.4-61.4,37.3c84.4,14.9,166.3,34.8,253.3,42.3c-12.8-14.9-23-34.8-38.4-49.7
	c110,39.8,220.1,82.1,332.6,116.9c-25.6,5-48.6,2.5-74.2,7.5c111.1,3.8,217.7,37.9,324.4,72.6h78.5
	C949.3,327.7,898.8,313.3,847.9,297.1z"/>
<path class="st0" d="M1487.6,210c17.9-7.5,28.1-22.4,40.9-34.8c-74.4,23.1-150.5,40.4-224.8,61.6c-85.4,37-172,70.8-260.2,103H1920
	V59.9c-5.7-1.8-11.3-3.6-17-5.5c-41-5.8-81.4-14.8-121.2-28.5C1687.2,90.6,1595.1,162.8,1487.6,210z"/>
<path class="st1" d="M1731.6,11c-140.9,90.3-282.7,162.7-427.9,225.7c74.3-21.1,150.5-38.4,224.8-61.6c-12.8,12.4-23,27.4-40.9,34.8
	c107.5-47.3,199.6-119.4,294.3-184.1c39.7,13.7,80.2,22.6,121.2,28.5c-43.3-14.3-86-31-127.9-50.8C1762.3-3.9,1746.9,1.1,1731.6,11z
	"/>
<path class="st0" d="M1244.5,207.5c5.1,5,2.6,12.4,5.1,17.4c-35.8-7.5-69.1-22.4-104.9-34.8c7.7,0,7.7-7.5,12.8-9.9
	c-53.7-12.4-104.9-27.4-158.6-42.3c-30.4-6.8-54.4,17.6-81.8,29.4c5.1-0.9,10.2-0.4,15.3-2c-43.4,23.5-80,57.9-122.7,80.6
	c-2.5,1.5-5,2.8-7.8,4c2.6-1.3,5.2-2.6,7.8-4c13.3-8,22.3-19.9,33.1-28.3c-37.6,8.1-66.7,31.1-99.7,47.4
	c34.9,10.5,69.9,21.1,104.8,32.2c50.9,16.2,101.4,30.6,152.1,42.7h42.6c101.1-36.9,199.9-75.9,297.3-119.5
	C1308.5,214.2,1276.7,209.5,1244.5,207.5z"/>
<path class="st1" d="M809.7,245.8c42.6-22.6,79.2-57.1,122.7-80.6c-5.1,1.6-10.2,1.1-15.3,2c-2.6,1.1-5.1,2.1-7.8,3
	c2.6-1.7,5.2-2.5,7.8-3c27.4-11.8,51.4-36.2,81.8-29.4c53.7,14.9,104.9,29.8,158.6,42.3c-5.1,2.5-5.1,10-12.8,10
	c35.8,12.4,69.1,27.4,104.9,34.8c-2.6-5,0-12.4-5.1-17.4c32.2,2,63.9,6.7,95.4,12.8c5.3-2.4,10.6-4.7,15.9-7.1
	c-29.5-9.8-59-20-88.3-30.6c-40.9,29.8-97.2-19.9-143.3-32.3c-33.2-7.6-64.8-12.3-96.1-19.6c-15.9-1.2-31.8-3.7-47.2-7.8
	c-90.6,42.3-180,87.1-269,132.6c10.4,3.1,20.8,6.2,31.1,9.3c33.1-16.3,62.1-39.3,99.7-47.4C832,225.9,823,237.8,809.7,245.8z"/>
</svg>
