<?xml version="1.0" encoding="utf-8"?>
<!-- Generator: Adobe Illustrator 25.2.3, SVG Export Plug-In . SVG Version: 6.00 Build 0)  -->
<svg version="1.1" xmlns="http://www.w3.org/2000/svg" xmlns:xlink="http://www.w3.org/1999/xlink" x="0px" y="0px"
	 viewBox="0 0 2072 607" style="enable-background:new 0 0 2072 607;" xml:space="preserve">
<style type="text/css">
	.st0{fill:#FFFFFF;filter:url(#Adobe_OpacityMaskFilter);}
	.st1{mask:url(#mask0_1_);}
	.st2{fill:#C3DDEB;filter:url(#Adobe_OpacityMaskFilter_1_);}
	.st3{mask:url(#mask1_1_);}
	.st4{fill:#C3DDEB;}
	.st5{fill:#FAFAFA;}
	.st6{fill:url(#SVGID_1_);}
	.st7{fill:#EC7FA3;}
	.st8{fill:#FD9BBB;}
	.st9{fill:url(#SVGID_2_);}
	.st10{fill:url(#SVGID_3_);}
	.st11{fill:#1A2747;}
	.st12{opacity:0.28;fill:#1A2747;enable-background:new    ;}
	.st13{fill:#FFFFFF;}
	.st14{fill:#45A7CE;}
	.st15{display:none;fill:#1A2747;}
</style>
<g id="Capa_1">
	<defs>
		<filter id="Adobe_OpacityMaskFilter" filterUnits="userSpaceOnUse" x="13" y="-327" width="2057" height="934.9">
			<feColorMatrix  type="matrix" values="1 0 0 0 0  0 1 0 0 0  0 0 1 0 0  0 0 0 1 0"/>
		</filter>
	</defs>
	<mask maskUnits="userSpaceOnUse" x="13" y="-327" width="2057" height="934.9" id="mask0_1_">
		<rect class="st0" width="2072" height="607"/>
	</mask>
	<g class="st1">
		<defs>
			<filter id="Adobe_OpacityMaskFilter_1_" filterUnits="userSpaceOnUse" x="13" y="-327" width="2057" height="934.9">
				<feColorMatrix  type="matrix" values="1 0 0 0 0  0 1 0 0 0  0 0 1 0 0  0 0 0 1 0"/>
			</filter>
		</defs>
		<mask maskUnits="userSpaceOnUse" x="13" y="-327" width="2057" height="934.9" id="mask1_1_">
			
				<ellipse transform="matrix(0.9952 -9.780031e-02 9.780031e-02 0.9952 -28.6501 108.2814)" class="st2" cx="1090.2" cy="346.4" rx="1772" ry="296.5"/>
		</mask>
		<g class="st3">
			<rect x="150" y="-12" class="st4" width="1920" height="452"/>
			<path class="st4" d="M821.3,326.4c-112.6-34.8-222.6-77.1-332.6-116.9c15.4,14.9,25.6,34.8,38.4,49.7
				c-87-7.5-168.9-27.4-253.3-42.3c17.9-14.9,40.9-27.4,61.4-37.3c-62.1-6.7-126.3-1.3-185.2,21.6v205.2h921.5
				c-106.7-34.7-213.3-68.8-324.4-72.6C772.7,328.9,795.7,331.3,821.3,326.4z"/>
			<path class="st5" d="M997.9,363.7c-197-62.2-394.1-111.9-583.4-191.5c-20.5-9.9-48.6-24.9-64-24.9
				c-66.1-4.2-139.4,15.9-200.5,51.6v2.3c58.8-22.9,123-28.3,185.2-21.6c-20.5,9.9-43.5,22.4-61.4,37.3
				c84.4,14.9,166.3,34.8,253.3,42.3c-12.8-14.9-23-34.8-38.4-49.7c110,39.8,220.1,82.1,332.6,116.9c-25.6,5-48.6,2.5-74.2,7.5
				c111.1,3.8,217.7,37.9,324.4,72.6h78.5C1099.3,394.3,1048.8,379.9,997.9,363.7z"/>
			<path class="st4" d="M1637.6,276.6c17.9-7.5,28.1-22.4,40.9-34.8c-74.4,23.1-150.5,40.4-224.8,61.6c-85.4,37-172,70.8-260.2,103
				H2070V126.5c-5.7-1.8-11.3-3.6-17-5.5c-41-5.8-81.4-14.8-121.2-28.5C1837.2,157.2,1745.1,229.4,1637.6,276.6z"/>
			<path class="st5" d="M1881.6,77.6c-140.9,90.3-282.7,162.7-427.9,225.7c74.3-21.1,150.5-38.4,224.8-61.6
				c-12.8,12.4-23,27.4-40.9,34.8c107.5-47.3,199.6-119.4,294.3-184.1c39.7,13.7,80.2,22.6,121.2,28.5c-43.3-14.3-86-31-127.9-50.8
				C1912.3,62.7,1896.9,67.7,1881.6,77.6z"/>
			
				<linearGradient id="SVGID_1_" gradientUnits="userSpaceOnUse" x1="2051.9851" y1="490.747" x2="2051.9851" y2="483.277" gradientTransform="matrix(1 0 0 -1 0 608)">
				<stop  offset="0" style="stop-color:#B5C84B"/>
				<stop  offset="1" style="stop-color:#9EB83D"/>
			</linearGradient>
			<path class="st6" d="M2069.1,126.5v-4.1c-11.4-2.3-22.9-4.7-34.2-7.2C2046.2,119.2,2057.7,122.9,2069.1,126.5z"/>
			<path class="st7" d="M1844.8,70.2c-23-9.9-43.5-29.8-64-49.7c-5.1-5-15.3-12.4-23-12.4c-22.5,2.4-45,5.2-67.2,8.5
				c-43.7,18.7-86.1,42.4-129.8,61.2c7.7-9.9,15.4-19.9,25.6-27.4c-64,22.4-145.8,14.9-194.5,64.7c25.6-2.5,48.6-12.4,74.2-14.9
				c-15.3,47.3-58.8,97-110,104.5c10.2-14.9,23-27.4,33.3-42.3c-46.1,5-84.4,29.8-127.9,47.3c-3.3,0.6-6.5,1.6-9.6,2.7
				c7.4,1.5,14.8,3.1,22.4,4.8c46.1,12.4,102.3,62.2,143.3,32.3c29.3,10.6,58.8,20.8,88.3,30.6C1632.6,222.4,1757,157,1880.7,77.6
				c1.1-0.7,2.2-1.4,3.3-2C1870.8,74.7,1857.3,74.7,1844.8,70.2z"/>
			<path class="st8" d="M1389.4,162.2c-10.2,14.9-23,27.4-33.3,42.3c51.2-7.5,94.7-57.2,110-104.5c-25.6,2.5-48.6,12.4-74.2,14.9
				c48.6-49.7,130.5-42.3,194.5-64.7c-10.2,7.5-17.9,17.4-25.6,27.4c43.7-18.7,86.1-42.5,129.8-61.2c-91.7,13.2-181.5,33.2-268,61.2
				c-40.9,14.9-56.3,72.1-92.1,89.5c-45.2,22.9-99.5,34.1-152.4,30.1c24.2,5.6,48.6,9.8,73.8,14.8c3.1-1.1,6.2-2,9.6-2.7
				C1304.9,192.1,1343.3,167.2,1389.4,162.2z"/>
			<path class="st4" d="M1394.5,274.1c5.1,5,2.6,12.4,5.1,17.4c-35.8-7.5-69.1-22.4-104.9-34.8c7.7,0,7.7-7.5,12.8-9.9
				c-53.7-12.4-104.9-27.4-158.6-42.3c-30.4-6.8-54.4,17.6-81.8,29.4c5.1-0.9,10.2-0.4,15.3-2c-43.4,23.5-80,57.9-122.7,80.6
				c-2.5,1.5-5,2.8-7.8,4c2.6-1.3,5.2-2.6,7.8-4c13.3-8,22.3-19.9,33.1-28.3c-37.6,8.1-66.7,31.1-99.7,47.4
				c34.9,10.5,69.9,21.1,104.8,32.2c50.9,16.2,101.4,30.6,152.1,42.7h42.6c101.1-36.9,199.9-75.9,297.3-119.5
				C1458.5,280.8,1426.7,276.1,1394.5,274.1z"/>
			
				<linearGradient id="SVGID_2_" gradientUnits="userSpaceOnUse" x1="1063.175" y1="375.224" x2="1063.175" y2="371.687" gradientTransform="matrix(1 0 0 -1 0 608)">
				<stop  offset="0" style="stop-color:#78909C"/>
				<stop  offset="1" style="stop-color:#314047"/>
			</linearGradient>
			<path class="st9" d="M1067.1,233.9c-2.6,0.4-5.2,1.3-7.8,3C1061.9,236,1064.5,235,1067.1,233.9z"/>
			
				<linearGradient id="SVGID_3_" gradientUnits="userSpaceOnUse" x1="955.744" y1="297.074" x2="955.744" y2="292.281" gradientTransform="matrix(1 0 0 -1 0 608)">
				<stop  offset="0" style="stop-color:#78909C"/>
				<stop  offset="1" style="stop-color:#314047"/>
			</linearGradient>
			<path class="st10" d="M959.7,312.4c-2.6,1.4-5.2,2.7-7.8,4C954.6,315.3,957.2,313.9,959.7,312.4z"/>
			<path class="st5" d="M959.7,312.4c42.6-22.6,79.2-57.1,122.7-80.6c-5.1,1.6-10.2,1.1-15.3,2c-2.6,1.1-5.1,2.1-7.8,3
				c2.6-1.7,5.2-2.5,7.8-3c27.4-11.8,51.4-36.2,81.8-29.4c53.7,14.9,104.9,29.8,158.6,42.3c-5.1,2.5-5.1,10-12.8,10
				c35.8,12.4,69.1,27.4,104.9,34.8c-2.6-5,0-12.4-5.1-17.4c32.2,2,63.9,6.7,95.4,12.8c5.3-2.4,10.6-4.7,15.9-7.1
				c-29.5-9.8-59-20-88.3-30.6c-40.9,29.8-97.2-19.9-143.3-32.3c-33.2-7.6-64.8-12.3-96.1-19.6c-15.9-1.2-31.8-3.7-47.2-7.8
				c-90.6,42.3-180,87.1-269,132.6c10.4,3.1,20.8,6.2,31.1,9.3c33.1-16.3,62.1-39.3,99.7-47.4C982,292.5,973,304.4,959.7,312.4z"/>
			<path class="st7" d="M882.7,209.5c-30.7,0-51.2,39.8-66.5,37.3c-61.4-7.5-125.4-34.8-179.1-74.6c28.1,9.9,53.7,22.4,81.9,34.8
				c-35.8-29.8-71.6-62.2-107.5-94.5c-7.7-7.5-12.8-19.9-25.6-19.9c12.8,12.4,15.4,27.4,15.4,42.3c-17.9-34.8-53.7-62.2-61.4-102
				c-81.9-7.5-163.8-2.5-245.6,7.5c17.9,5,51.2,12.4,43.5,17.4c-46.1,37.3-112.6,47.3-171.4,64.7c12.8-14.9,20.5-34.8,40.9-44.8
				c-22.1,0-40.2,9-57.2,19.6v101.6c61.1-35.6,134.4-55.7,200.5-51.6c15.4,0,43.5,14.9,64,24.9c145.8,61.3,296.1,104.9,447.5,150.1
				c36.8-18.8,73.6-37.5,110.5-55.9c-31.7-19.9-65.7-36.1-102.5-46.9C872.5,214.4,877.6,212,882.7,209.5z"/>
			<path class="st8" d="M887.9,207c-30.7,0-66.5,19.9-97.2,14.9c-33.3-7.5-61.4-32.3-89.6-54.7c-58.9-42.3-107.5-87.1-153.5-139.3
				c-133.1,9.9-273.8-49.7-394.1,44.8c-1.2,0.9-2.3,1.9-3.5,2.8v21.8c17-10.6,35.1-19.6,57.2-19.6c-20.5,9.9-28.1,29.8-40.9,44.8
				C225.1,105,291.7,95,337.7,57.7c7.7-5-25.6-12.4-43.5-17.4c81.9-9.9,163.8-14.9,245.6-7.5c7.7,39.8,43.5,67.2,61.4,102
				c0-14.9-2.6-29.8-15.4-42.3c12.8,0,17.9,12.4,25.6,19.9c35.8,32.3,71.6,64.7,107.5,94.5c-28.1-12.4-53.7-24.9-81.9-34.8
				c53.7,39.8,117.7,67.2,179.1,74.6c15.4,2.5,35.8-37.3,66.5-37.3c-5.1,2.5-10.2,5-12.8,9.9c36.8,10.8,70.8,27,102.5,46.9
				c10-5,20-10,30-14.9C964.3,230.7,926.1,211.1,887.9,207z"/>
			<path class="st5" d="M2069.1,422.8v-18c-90.6,2.5-180.9,10.3-271.4,18H2069.1z"/>
			<path class="st5" d="M478.4,361.2C368.1,349,260.2,322.5,150,335.5v87.2h919c-162.5-14.6-325.4-35.9-490.8-56.6
				C545,363.7,511.7,363.7,478.4,361.2z"/>
			<path class="st5" d="M859.7,396c-9.3,0.4-18.6,1-27.8,1.6c79.3,9.4,158.3,18.1,237.1,25.1h728.7c90.5-7.7,180.8-15.5,271.4-18
				V326c-117,3.6-234.1,11.7-352.2,22.8C1430.3,373.6,1146.3,383.6,859.7,396z"/>
			<path class="st11" d="M1732.3,339.3l-8.2-2.9v-1.3l7.6,1.3l-0.9-3.9l-5.7-1.8l1.1-0.5l4.3,0.8l-3.4-14.9l-5.2-0.5l5-0.5
				l-2.4-10.7l-4.5-3.3v-2.5l3.6,1.7l-6.7-29.6l-6.7,29.4l4-1.5l-4.3,2.9l-2.7,12l3.6-1.3l-1,3.7l-3.6,1.7l-0.3,1.1l6.1-2.2v0.7
				l-6.3,2.4l-2,8.7l6.5-1.5v1.1l-7.1,3.2l-0.6,2.8l6.4-2.1l-6.8,3.7l-0.9,4.1l13.6-4l-1.1,0.9l-12.7,4.3l-0.7,3h33.3L1732.3,339.3z
				"/>
			<path class="st12" d="M1724.1,336.4v-1.3l7.6,1.3l-0.9-3.9l-5.7-1.8l1.1-0.5l4.3,0.8l-3.4-14.9l-5.2-0.5l4.9-0.5l-2.4-10.7
				l-3.7-2.7c-5,11.9-9.1,24.3-13.8,36.2l7.8-2.3l-1.1,0.9l-7,2.3c-0.5,1.1-0.9,2.3-1.3,3.4c-0.2,0.5-0.4,1-0.6,1.5h28.9l-1-4.7
				L1724.1,336.4z"/>
			<path class="st11" d="M1723.3,329.7l-0.4-0.9l-5.6,2.7v-16.6l3-3.2l-0.7-0.6l-2.3,2.4v-9.1h-1v18.5l-4.5-4.3l-0.7,0.7l5.2,5v22.9
				h1v-14.7L1723.3,329.7z"/>
			<path class="st11" d="M1891.9,335.9l-8.2-2.9v-1.3l7.6,1.3l-0.9-3.9l-5.7-1.8l1.1-0.5l4.3,0.8l-3.4-14.9l-5.2-0.5l4.9-0.5
				l-2.4-10.7l-4.5-3.3v-2.5l3.6,1.7l-6.8-29.6l-6.7,29.4l4-1.5l-4.3,2.9l-2.7,12l3.6-1.3l-0.9,3.7l-3.6,1.7l-0.3,1.1l6.1-2.2v0.7
				l-6.4,2.4l-2,8.7l6.5-1.5v1l-7.1,3.2l-0.6,2.8l6.5-2.1l-6.8,3.7l-0.9,4.1l13.6-4l-1.1,0.9l-12.8,4.3l-0.7,3h33.3L1891.9,335.9z"
				/>
			<path class="st12" d="M1883.7,333.1v-1.3l7.6,1.3l-0.9-3.9l-5.7-1.8l1.1-0.5l4.3,0.8l-3.4-14.9l-5.2-0.5l4.9-0.5l-2.4-10.7
				l-3.7-2.7c-5,11.9-9.1,24.3-13.8,36.2l7.8-2.3l-1.1,0.9l-7,2.3c-0.5,1.1-0.9,2.3-1.4,3.4c-0.2,0.5-0.4,1-0.6,1.5h28.9l-1.1-4.7
				L1883.7,333.1z"/>
			<path class="st11" d="M1882.8,326.3l-0.4-0.8l-5.6,2.7v-16.6l3-3.2l-0.7-0.6l-2.3,2.4v-9.1h-1v18.5l-4.4-4.3l-0.7,0.7l5.1,5v23h1
				v-14.7L1882.8,326.3z"/>
			<path class="st11" d="M2052,332l-8.2-2.9v-1.3l7.6,1.3l-0.9-3.9l-5.7-1.8l1.1-0.6l4.3,0.8l-3.4-14.9l-5.2-0.5l4.9-0.5l-2.4-10.7
				l-4.5-3.3v-2.5l3.6,1.7l-6.7-29.6l-6.7,29.4l4-1.5l-4.3,2.9l-2.7,12l3.6-1.3l-0.9,3.7l-3.6,1.7l-0.3,1.1l6.1-2.2v0.7l-6.3,2.4
				l-2,8.7l6.5-1.5v1l-7.1,3.2l-0.6,2.8l6.4-2.1l-6.8,3.7l-1,4.1l13.6-4l-1.1,0.9l-12.7,4.3l-0.7,3h33.3L2052,332z"/>
			<path class="st12" d="M2043.7,329.2v-1.3l7.6,1.3l-0.9-3.9l-5.7-1.8l1.1-0.5l4.3,0.8l-3.4-14.9l-5.2-0.5l4.9-0.5l-2.4-10.7
				l-3.7-2.7c-5,11.9-9.1,24.3-13.8,36.2l7.8-2.3l-1.1,0.9l-7,2.3c-0.5,1.1-0.9,2.3-1.3,3.4c-0.2,0.5-0.4,1-0.6,1.5h28.9l-1.1-4.7
				L2043.7,329.2z"/>
			<path class="st11" d="M2042.9,322.4l-0.4-0.9l-5.6,2.7v-16.6l3-3.2l-0.7-0.6l-2.3,2.4v-9.1h-1v18.5l-4.5-4.3l-0.7,0.7l5.2,5V340
				h1v-14.7L2042.9,322.4z"/>
			<path class="st11" d="M1949,360.6l-8.2-2.9v-1.3l7.6,1.3l-0.9-3.9l-5.7-1.8l1.1-0.5l4.3,0.8l-3.4-14.9l-5.2-0.5l4.9-0.5
				l-2.4-10.7l-4.5-3.3V320l3.6,1.7l-6.7-29.6l-6.7,29.4l4.1-1.5l-4.3,2.9l-2.7,12l3.6-1.3l-1,3.7l-3.6,1.7l-0.2,1.1l6.1-2.2v0.7
				l-6.3,2.4l-2,8.7l6.5-1.5v1l-7.1,3.2l-0.6,2.8l6.4-2.1l-6.8,3.7l-0.9,4.1l13.6-4l-1.1,0.9l-12.7,4.3l-0.7,3h33.3L1949,360.6z"/>
			<path class="st12" d="M1940.8,357.7v-1.3l7.6,1.3l-0.9-3.9l-5.7-1.8l1.1-0.5l4.3,0.8l-3.4-14.9l-5.2-0.5l4.9-0.5l-2.4-10.7
				l-3.7-2.7c-5,11.9-9.1,24.3-13.8,36.2l7.8-2.3l-1.1,0.9l-7,2.3c-0.5,1.1-0.9,2.3-1.4,3.4c-0.2,0.5-0.4,1-0.6,1.5h28.9l-1-4.7
				L1940.8,357.7z"/>
			<path class="st11" d="M1939.9,350.9l-0.4-0.8l-5.6,2.7v-16.6l3-3.2l-0.7-0.7l-2.3,2.4v-9.1h-1v18.5l-4.5-4.3l-0.7,0.7l5.2,5v23h1
				v-14.7L1939.9,350.9z"/>
			<path class="st11" d="M473.1,374.2l-8.2-2.9V370l7.6,1.3l-0.9-3.9l-5.7-1.8l1.1-0.5l4.3,0.8l-3.4-14.9l-5.2-0.5l4.9-0.5
				l-2.4-10.7l-4.5-3.3v-2.5l3.6,1.7l-6.8-29.6l-6.7,29.4l4-1.5l-4.3,2.9l-2.7,12l3.6-1.3l-0.9,3.7l-3.6,1.7l-0.3,1.1l6.1-2.2v0.7
				l-6.3,2.4l-2,8.7l6.5-1.5v1.1l-7.1,3.2l-0.6,2.8l6.5-2.1l-6.8,3.7l-0.9,4.1l13.6-4l-1.1,0.9l-12.7,4.3l-0.7,3h33.2L473.1,374.2z"
				/>
			<path class="st12" d="M464.9,371.3V370l7.6,1.3l-0.9-3.9l-5.7-1.8l1.1-0.5l4.3,0.8l-3.4-14.9l-5.2-0.5l4.9-0.5l-2.4-10.7
				l-3.7-2.7c-5,11.9-9.1,24.3-13.8,36.2l7.8-2.3l-1.1,0.9l-7,2.3c-0.5,1.1-0.9,2.3-1.4,3.4c-0.2,0.5-0.4,1-0.6,1.5h28.9l-1-4.7
				L464.9,371.3z"/>
			<path class="st11" d="M464,364.6l-0.5-0.9l-5.6,2.7v-16.6l3-3.2l-0.7-0.6l-2.3,2.4v-9.1h-1v18.5l-4.5-4.3l-0.7,0.7l5.1,5v22.9h1
				v-14.7L464,364.6z"/>
			<path class="st11" d="M197.8,356.3l-8.2-2.9v-1.3l7.6,1.3l-0.9-3.9l-5.7-1.8l1-0.5l4.3,0.8l-3.4-14.9l-5.2-0.5l5-0.5l-2.4-10.7
				l-4.5-3.3v-2.5l3.6,1.7l-6.7-29.6l-6.7,29.4l4-1.5l-4.3,2.9l-2.7,12l3.6-1.3l-0.9,3.7l-3.6,1.7l-0.3,1.1l6.1-2.2v0.7l-6.3,2.4
				l-2,8.7l6.5-1.5v1l-7.1,3.2l-0.6,2.8l6.4-2.1l-6.8,3.7l-0.9,4.1l13.6-4l-1.1,0.9l-12.8,4.3l-0.7,3h33.3L197.8,356.3z"/>
			<path class="st12" d="M189.6,353.4v-1.3l7.6,1.3l-0.9-3.9l-5.7-1.8l1.1-0.5l4.3,0.8l-3.4-14.9l-5.2-0.5l4.9-0.5l-2.4-10.7
				l-3.7-2.7c-5,11.9-9.1,24.3-13.8,36.2l7.8-2.3l-1.1,0.9l-7,2.3c-0.5,1.1-0.9,2.3-1.4,3.4c-0.2,0.5-0.4,1-0.6,1.5h28.9l-1-4.7
				L189.6,353.4z"/>
			<path class="st11" d="M188.8,346.7l-0.4-0.8l-5.6,2.7v-16.6l3-3.2l-0.7-0.6l-2.3,2.4v-9.1h-1V340l-4.5-4.3l-0.7,0.7l5.1,5v23h1
				v-14.7L188.8,346.7z"/>
			<path class="st11" d="M1611.4,352.2l-8.2-2.9v-1.3l7.6,1.3l-0.9-3.9l-5.7-1.8l1.1-0.5l4.3,0.8l-3.4-14.9l-5.2-0.5l4.9-0.5
				l-2.4-10.7l-4.5-3.3v-2.5l3.6,1.7l-6.7-29.6l-6.7,29.4l4.1-1.5l-4.3,2.9l-2.7,12l3.6-1.3l-1,3.7l-3.6,1.7l-0.3,1.1l6.1-2.2v0.7
				l-6.3,2.4l-2,8.7l6.5-1.5v1.1l-7.1,3.2l-0.6,2.8l6.4-2.1l-6.8,3.7l-1,4.1l13.6-4l-1.1,0.9l-12.7,4.3l-0.7,3h33.3L1611.4,352.2z"
				/>
			<path class="st12" d="M1603.1,349.4v-1.3l7.6,1.3l-0.9-3.9l-5.7-1.8l1.1-0.5l4.3,0.8l-3.4-14.9l-5.2-0.5l4.9-0.5l-2.4-10.7
				l-3.7-2.7c-5,11.9-9.1,24.3-13.8,36.2l7.8-2.3l-1.1,0.9l-7,2.3c-0.5,1.1-0.9,2.3-1.4,3.4c-0.2,0.5-0.4,1-0.6,1.5h28.9l-1-4.7
				L1603.1,349.4z"/>
			<path class="st11" d="M1602.3,342.6l-0.4-0.9l-5.6,2.7v-16.6l3-3.2l-0.7-0.6l-2.3,2.4v-9.1h-1v18.5l-4.5-4.3l-0.7,0.7l5.2,5v22.9
				h1v-14.7L1602.3,342.6z"/>
			<path class="st11" d="M1460.6,374.2l-8.2-2.9V370l7.6,1.3l-0.9-3.9l-5.7-1.8l1.1-0.5l4.3,0.8l-3.4-14.9l-5.2-0.5l4.9-0.5
				l-2.4-10.7l-4.5-3.3v-2.5l3.6,1.7l-6.7-29.6l-6.7,29.4l4-1.5l-4.3,2.9l-2.7,12l3.6-1.3l-0.9,3.7l-3.6,1.7l-0.3,1.1l6.1-2.2v0.7
				l-6.3,2.4l-2,8.7l6.5-1.5v1.1l-7.1,3.2l-0.6,2.8l6.5-2.1l-6.8,3.7l-0.9,4.1l13.6-4l-1.1,0.9l-12.8,4.3l-0.7,3h33.3L1460.6,374.2z
				"/>
			<path class="st12" d="M1452.3,371.3V370l7.6,1.3l-0.9-3.9l-5.7-1.8l1.1-0.5l4.3,0.8l-3.4-14.9l-5.2-0.5l4.9-0.5l-2.4-10.7
				l-3.7-2.7c-5,11.9-9.1,24.3-13.8,36.2l7.8-2.3l-1.1,0.9l-7,2.3c-0.5,1.1-0.9,2.3-1.4,3.4c-0.2,0.5-0.4,1-0.6,1.5h28.9l-1.1-4.7
				L1452.3,371.3z"/>
			<path class="st11" d="M1451.5,364.6l-0.4-0.9l-5.6,2.7v-16.6l3-3.2l-0.7-0.6l-2.3,2.4v-9.1h-1v18.5l-4.4-4.3l-0.7,0.7l5.1,5v22.9
				h1v-14.7L1451.5,364.6z"/>
			<path class="st11" d="M1367.7,397.7l-12.7-4.5v-2l11.7,2l-1.4-6l-8.8-2.8l1.6-0.9l6.6,1.2l-5.2-23.1l-8-0.8l7.6-0.7l-3.7-16.5
				l-7-5.1v-3.8l5.6,2.7l-10.4-45.8l-10.4,45.5l6.3-2.4l-6.7,4.4l-4.2,18.6l5.6-2l-1.4,5.8l-5.6,2.6l-0.4,1.8l9.5-3.3v1.1l-9.8,3.8
				l-3,13.4l10.1-2.3v1.6l-11,4.9l-1,4.4l10-3.3l-10.5,5.7l-1.5,6.3l21-6.2l-1.7,1.4l-19.7,6.6l-1,4.7h51.4L1367.7,397.7z"/>
			<path class="st12" d="M1355,393.3v-2l11.7,2l-1.4-6l-8.8-2.8l1.7-0.9l6.6,1.2l-5.2-23.1l-8-0.8l7.6-0.7l-3.8-16.5l-5.7-4.1
				c-7.7,18.5-14.1,37.6-21.4,56.1l12-3.5l-1.7,1.4l-10.9,3.6c-0.7,1.7-1.4,3.5-2.1,5.2c-0.3,0.8-0.7,1.6-1,2.4h44.7l-1.6-7.2
				L1355,393.3z"/>
			<path class="st11" d="M1353.7,382.9l-0.7-1.3l-8.6,4.2v-25.6l4.7-4.9l-1.1-1l-3.5,3.7v-14h-1.5v28.6l-6.9-6.7l-1.1,1l8,7.7V410
				h1.5v-22.7L1353.7,382.9z"/>
			<path class="st11" d="M1118.2,382l-8.2-2.9v-1.3l7.6,1.3l-0.9-3.9l-5.7-1.8l1.1-0.5l4.3,0.8l-3.4-14.9l-5.2-0.5l4.9-0.5
				l-2.4-10.7l-4.5-3.3v-2.5l3.6,1.7l-6.7-29.6l-6.7,29.4l4-1.5l-4.4,2.9l-2.7,12l3.6-1.3l-0.9,3.7l-3.6,1.7l-0.3,1.1l6.1-2.2v0.7
				l-6.3,2.4l-2,8.7l6.5-1.5v1.1l-7.1,3.2l-0.6,2.8l6.5-2.1l-6.8,3.7l-0.9,4.1l13.6-4l-1.1,0.9l-12.7,4.3l-0.7,3h33.3L1118.2,382z"
				/>
			<path class="st12" d="M1109.9,379.1v-1.3l7.6,1.3l-0.9-3.9l-5.7-1.8l1.1-0.5l4.3,0.8l-3.4-14.9l-5.2-0.5l4.9-0.5l-2.4-10.7
				l-3.7-2.7c-5,11.9-9.1,24.3-13.8,36.2l7.8-2.3l-1.1,0.9l-7,2.3c-0.5,1.1-0.9,2.3-1.4,3.4c-0.2,0.5-0.4,1-0.6,1.5h28.9l-1.1-4.7
				L1109.9,379.1z"/>
			<path class="st11" d="M1109.1,372.4l-0.4-0.9l-5.6,2.7v-16.6l3-3.2l-0.7-0.6l-2.3,2.4v-9.1h-1v18.5l-4.4-4.3l-0.7,0.7l5.1,5V390
				h1v-14.7L1109.1,372.4z"/>
			<path class="st11" d="M847.5,398.9l-8.2-2.9v-1.3l7.6,1.3l-0.9-3.9l-5.7-1.8l1.1-0.6l4.3,0.8l-3.4-14.9l-5.2-0.5l4.9-0.5
				l-2.4-10.7l-4.5-3.3v-2.5l3.6,1.7l-6.8-29.6l-6.7,29.4l4-1.5l-4.3,2.9l-2.7,12l3.6-1.3l-0.9,3.7l-3.6,1.7l-0.3,1.1l6.1-2.1v0.7
				l-6.3,2.4l-2,8.7l6.5-1.5v1l-7.1,3.2l-0.6,2.8l6.5-2.1l-6.8,3.7l-0.9,4.1l13.6-4l-1.1,0.9l-12.7,4.3l-0.7,3h33.3L847.5,398.9z"/>
			<path class="st12" d="M839.2,396v-1.3l7.6,1.3l-0.9-3.9l-5.7-1.8l1.1-0.5l4.3,0.8l-3.4-14.9l-5.2-0.5l4.9-0.5l-2.4-10.7l-3.7-2.7
				c-5,11.9-9.1,24.3-13.8,36.2l7.8-2.3l-1.1,0.9l-7,2.3c-0.5,1.1-0.9,2.3-1.4,3.4c-0.2,0.5-0.4,1-0.6,1.5h28.9l-1-4.7L839.2,396z"
				/>
			<path class="st11" d="M838.4,389.2l-0.4-0.8l-5.6,2.7v-16.6l3-3.2l-0.7-0.6l-2.3,2.4V364h-1v18.5l-4.5-4.3l-0.7,0.7l5.1,5v23h1
				v-14.7L838.4,389.2z"/>
			<path class="st11" d="M721.4,395.8l-8.2-2.9v-1.3l7.6,1.3l-0.9-3.9l-5.7-1.8l1.1-0.5l4.3,0.8l-3.4-14.9l-5.2-0.5l4.9-0.5
				l-2.4-10.7l-4.5-3.3v-2.5l3.6,1.7l-6.7-29.6l-6.7,29.4l4-1.5l-4.3,2.9l-2.7,12l3.6-1.3l-0.9,3.7l-3.6,1.7l-0.3,1.1l6.1-2.2v0.7
				l-6.3,2.4l-2,8.7l6.5-1.5v1l-7.1,3.2l-0.6,2.8l6.5-2.1l-6.8,3.7l-0.9,4.1l13.6-4l-1.1,0.9l-12.7,4.3l-0.7,3h33.3L721.4,395.8z"/>
			<path class="st12" d="M713.2,393v-1.3l7.6,1.3l-0.9-3.9l-5.7-1.8l1.1-0.5l4.3,0.8l-3.4-14.9l-5.2-0.5l4.9-0.5l-2.4-10.7l-3.7-2.7
				c-5,11.9-9.1,24.3-13.8,36.2l7.8-2.3l-1.1,0.9l-7,2.3c-0.5,1.1-0.9,2.3-1.4,3.4c-0.2,0.5-0.4,1-0.6,1.5h28.9l-1-4.7L713.2,393z"
				/>
			<path class="st11" d="M712.3,386.2l-0.4-0.8l-5.6,2.7v-16.6l3-3.2l-0.7-0.6l-2.3,2.4V361h-1v18.5l-4.5-4.3l-0.7,0.7l5.1,5v23h1
				v-14.7L712.3,386.2z"/>
			<path class="st11" d="M319.5,346.7l-8.2-2.9v-1.3l7.6,1.3L318,340l-5.7-1.8l1.1-0.5l4.3,0.8l-3.4-14.9l-5.2-0.5l4.9-0.5
				l-2.4-10.7l-4.5-3.3v-2.5l3.6,1.7l-6.7-29.6l-6.7,29.4l4-1.5l-4.4,2.9l-2.7,12l3.6-1.3l-0.9,3.7l-3.6,1.7l-0.3,1.1l6.1-2.2v0.7
				l-6.4,2.4l-1.9,8.7l6.5-1.5v1.1l-7.1,3.2l-0.6,2.8l6.5-2.1l-6.8,3.7l-0.9,4.1l13.6-4l-1.1,0.9l-12.7,4.3l-0.7,3h33.3L319.5,346.7
				z"/>
			<path class="st12" d="M311.3,343.9v-1.3l7.6,1.3l-0.9-3.9l-5.7-1.8l1.1-0.5l4.3,0.8l-3.4-14.9l-5.2-0.5l4.9-0.5l-2.4-10.7
				l-3.7-2.7c-5,11.9-9.1,24.3-13.8,36.2l7.8-2.3l-1.1,0.9l-7,2.3c-0.5,1.1-0.9,2.3-1.4,3.4c-0.2,0.5-0.4,1-0.6,1.5h28.9l-1-4.7
				L311.3,343.9z"/>
			<path class="st11" d="M310.4,337.1l-0.4-0.9l-5.6,2.7v-16.6l3-3.2l-0.7-0.6l-2.3,2.4v-9.1h-1v18.5l-4.5-4.3l-0.7,0.7l5.1,5v22.9
				h1V340L310.4,337.1z"/>
			<path class="st11" d="M544.4,382l-8.2-2.9v-1.3l7.6,1.3l-0.9-3.9l-5.7-1.8l1.1-0.5l4.3,0.8l-3.4-14.9l-5.2-0.5l4.9-0.5l-2.4-10.7
				l-4.5-3.3v-2.5l3.6,1.7l-6.7-29.6l-6.7,29.4l4.1-1.5l-4.3,2.9l-2.7,12l3.6-1.3l-0.9,3.7l-3.6,1.7l-0.3,1.1l6.1-2.2v0.7l-6.3,2.4
				l-2,8.7l6.5-1.5v1.1l-7.1,3.2l-0.6,2.8l6.4-2.1l-6.8,3.7l-0.9,4.1l13.6-4l-1.1,0.9l-12.7,4.3l-0.7,3h33.3L544.4,382z"/>
			<path class="st12" d="M536.1,379.1v-1.3l7.6,1.3l-0.9-3.9l-5.7-1.8l1.1-0.5l4.3,0.8l-3.4-14.9l-5.2-0.5l4.9-0.5l-2.4-10.7
				l-3.7-2.7c-5,11.9-9.1,24.3-13.8,36.2l7.8-2.3l-1.1,0.9l-7,2.3c-0.5,1.1-0.9,2.3-1.4,3.4c-0.2,0.5-0.4,1-0.6,1.5h28.9l-1-4.7
				L536.1,379.1z"/>
			<path class="st11" d="M535.3,372.4l-0.4-0.9l-5.6,2.7v-16.6l3-3.2l-0.7-0.6l-2.3,2.4v-9.1h-1v18.5l-4.5-4.3l-0.7,0.7l5.1,5V390h1
				v-14.7L535.3,372.4z"/>
			<path class="st11" d="M253.2,387.9l-16-5.6v-2.5l14.8,2.5l-1.7-7.6l-11.1-3.5l2.1-1.1l8.4,1.6l-6.6-29.1l-10.1-1l9.6-0.9
				l-4.7-20.8l-8.8-6.4v-4.8l7,3.4l-13.2-57.9l-13.1,57.5l7.9-3l-8.5,5.6l-5.3,23.5l7.1-2.6l-1.8,7.3l-7,3.3l-0.5,2.2l11.9-4.2v1.4
				l-12.4,4.8l-3.8,16.9l12.7-2.9v2.1l-13.9,6.2l-1.3,5.5l12.6-4.1l-13.3,7.3l-1.8,8l26.5-7.8l-2.2,1.8l-24.9,8.3l-1.3,5.9h64.9
				L253.2,387.9z"/>
			<path class="st12" d="M237.2,382.3v-2.5l14.8,2.5l-1.7-7.6l-11.1-3.5l2.1-1.1l8.4,1.6l-6.6-29.1l-10.1-1l9.6-0.9l-4.7-20.8
				l-7.1-5.2c-9.7,23.3-17.8,47.4-27,70.7l15.1-4.4l-2.2,1.8l-13.7,4.6c-0.9,2.2-1.8,4.4-2.7,6.6c-0.4,1-0.8,2-1.3,3h56.4l-2-9.1
				L237.2,382.3z"/>
			<path class="st11" d="M235.5,369.1l-0.8-1.7l-10.9,5.2v-32.3l5.9-6.2l-1.4-1.3l-4.5,4.7v-17.7h-1.9V356l-8.7-8.4l-1.4,1.3
				l10.1,9.7v44.8h1.9v-28.6L235.5,369.1z"/>
			<path class="st11" d="M433.3,385.8l-32.3-11.2v-5l29.7,5.1l-3.5-15.4l-22.4-7l4.2-2.2l16.9,3.2l-13.3-58.5l-20.3-2l19.4-1.9
				l-9.5-41.9l-17.7-12.9v-9.8l14.1,6.8L372.2,117L346,232.5l15.8-6l-17,11.3l-10.8,47.1l14.2-5.1l-3.7,14.6l-14.1,6.6l-1,4.5
				l24-8.5v2.8l-24.9,9.6l-7.7,34l25.5-5.9v4.2l-28,12.5l-2.5,11.1l25.4-8.3l-26.8,14.6l-3.7,16.1L364,372l-4.4,3.6l-50,16.6
				L307,404h130.5L433.3,385.8z"/>
			<path class="st12" d="M401.1,374.6v-5l29.7,5.1l-3.5-15.4l-22.4-7l4.2-2.2l16.8,3.1l-13.3-58.5l-20.3-2l19.4-1.9l-9.5-41.9
				l-14.4-10.5c-19.4,46.9-35.7,95.3-54.3,142.2l30.4-8.9l-4.4,3.6l-27.6,9.2c-1.7,4.4-3.5,8.8-5.4,13.2c-0.8,2-1.7,4-2.5,6h113.3
				l-4.1-18.2L401.1,374.6z"/>
			<path class="st11" d="M397.7,348.1l-1.7-3.4l-21.9,10.5v-64.9l11.8-12.5l-2.8-2.5l-8.9,9.4v-35.6h-3.9v72.6l-17.5-16.9l-2.7,2.6
				l20.2,19.6v90h3.9v-57.6L397.7,348.1z"/>
			<path class="st11" d="M657.3,404.5l-16-5.6v-2.5l14.8,2.6l-1.7-7.6l-11.1-3.5l2.1-1.1l8.4,1.6l-6.6-29.1l-10.1-1l9.6-0.9
				l-4.7-20.8l-8.8-6.4v-4.8l7,3.4l-13.2-57.9l-13,57.5l7.9-3l-8.5,5.6l-5.3,23.5l7.1-2.6l-1.8,7.3l-7.1,3.3l-0.5,2.2l11.9-4.2v1.4
				l-12.4,4.8l-3.8,16.9l12.7-2.9v2.1l-13.9,6.2l-1.3,5.5l12.6-4.1l-13.3,7.3l-1.8,8l26.5-7.8l-2.2,1.8l-24.9,8.3l-1.3,5.9h64.9
				L657.3,404.5z"/>
			<path class="st12" d="M641.3,398.9v-2.5l14.8,2.5l-1.7-7.6l-11.1-3.5l2.1-1.1l8.4,1.6l-6.6-29.1l-10.1-1l9.6-0.9l-4.7-20.8
				l-7.1-5.2c-9.7,23.3-17.8,47.4-27,70.7l15.1-4.4l-2.2,1.8l-13.7,4.6c-0.9,2.2-1.8,4.4-2.7,6.6c-0.4,1-0.8,2-1.3,3h56.4l-2-9.1
				L641.3,398.9z"/>
			<path class="st11" d="M639.6,385.7l-0.8-1.7l-10.9,5.2V357l5.9-6.2l-1.4-1.3l-4.5,4.7v-17.7H626v36.1l-8.7-8.4l-1.4,1.3l10.1,9.7
				V420h1.9v-28.6L639.6,385.7z"/>
			<path class="st11" d="M957.9,403.1l-16-5.6V395l14.8,2.5l-1.7-7.6l-11.1-3.5l2.1-1.1l8.4,1.6l-6.6-29.1l-10.1-1l9.6-0.9
				l-4.7-20.8l-8.8-6.4v-4.8l7,3.4l-13.2-57.8l-13,57.5l7.9-3l-8.5,5.6l-5.3,23.5l7.1-2.6l-1.8,7.3l-7.1,3.3l-0.5,2.2l11.9-4.2v1.4
				l-12.4,4.8l-3.8,16.9l12.7-2.9v2l-13.9,6.2l-1.3,5.5l12.6-4.2l-13.3,7.3l-1.8,8l26.5-7.8l-2.2,1.8l-24.9,8.3l-1.3,5.9H960
				L957.9,403.1z"/>
			<path class="st12" d="M941.8,397.5V395l14.8,2.5l-1.7-7.6l-11.1-3.5l2.1-1.1l8.4,1.6l-6.6-29.1l-10.1-1l9.6-0.9l-4.7-20.8
				l-7.1-5.2c-9.7,23.3-17.8,47.4-27,70.7l15.1-4.4l-2.2,1.8l-13.7,4.6c-0.9,2.2-1.8,4.4-2.7,6.6c-0.4,1-0.8,2-1.3,3h56.4l-2-9.1
				L941.8,397.5z"/>
			<path class="st11" d="M940.2,384.3l-0.8-1.7l-10.9,5.2v-32.3l5.9-6.2l-1.4-1.3l-4.5,4.7v-17.7h-1.9v36.1l-8.7-8.4l-1.4,1.3
				l10.1,9.7v44.8h1.9v-28.6L940.2,384.3z"/>
			<path class="st11" d="M1545.6,403.1l-16.1-5.6V395l14.8,2.5l-1.7-7.6l-11.1-3.5l2.1-1.1l8.4,1.6l-6.6-29.1l-10.1-1l9.7-0.9
				l-4.7-20.8l-8.8-6.4v-4.8l7,3.4l-13.1-57.8l-13.1,57.5l7.9-3l-8.5,5.6l-5.3,23.5l7-2.6l-1.8,7.3l-7.1,3.3l-0.5,2.2l12-4.2v1.4
				l-12.4,4.8l-3.8,16.9l12.7-2.9v2l-13.9,6.2l-1.2,5.5l12.6-4.2l-13.3,7.3l-1.8,8l26.5-7.8l-2.2,1.8l-24.9,8.3l-1.3,5.9h64.9
				L1545.6,403.1z"/>
			<path class="st12" d="M1529.5,397.5V395l14.8,2.5l-1.7-7.6l-11.1-3.5l2.1-1.1l8.4,1.6l-6.6-29.1l-10.1-1l9.6-0.9L1530,335
				l-7.1-5.2c-9.7,23.3-17.8,47.4-27,70.7l15.1-4.4l-2.2,1.8l-13.7,4.6c-0.9,2.2-1.8,4.4-2.7,6.6c-0.4,1-0.8,2-1.2,3h56.4l-2-9.1
				L1529.5,397.5z"/>
			<path class="st11" d="M1527.8,384.3l-0.9-1.7l-10.9,5.2v-32.3l5.9-6.2l-1.4-1.3l-4.5,4.7v-17.7h-1.9v36.1l-8.7-8.4l-1.4,1.3
				l10.1,9.7v44.8h1.9v-28.6L1527.8,384.3z"/>
			<path class="st11" d="M1796.9,407.2l-16-5.6v-2.5l14.8,2.5l-1.7-7.6l-11.1-3.5l2.1-1.1l8.4,1.6l-6.6-29.1l-10.1-1l9.7-0.9
				l-4.7-20.8l-8.8-6.4V328l7,3.4l-13.1-57.8l-13.1,57.5l7.9-3l-8.5,5.6l-5.3,23.5l7.1-2.6l-1.8,7.3l-7,3.3l-0.5,2.2l11.9-4.2v1.4
				l-12.4,4.8l-3.9,16.9l12.7-2.9v2l-13.9,6.2l-1.2,5.5l12.6-4.2l-13.3,7.3l-1.8,8l26.5-7.8l-2.1,1.8l-24.9,8.3l-1.4,5.9h64.9
				L1796.9,407.2z"/>
			<path class="st12" d="M1780.9,401.6v-2.5l14.8,2.5l-1.7-7.6l-11.1-3.5l2.1-1.1l8.4,1.6l-6.6-29.1l-10.1-1l9.6-0.9l-4.7-20.8
				l-7.1-5.2c-9.7,23.3-17.8,47.4-27,70.7l15.1-4.4l-2.2,1.8l-13.7,4.6c-0.9,2.2-1.8,4.4-2.7,6.6c-0.4,1-0.8,2-1.2,3h56.4l-2.1-9.1
				L1780.9,401.6z"/>
			<path class="st11" d="M1779.2,388.5l-0.8-1.7l-10.9,5.2v-32.3l5.9-6.2l-1.4-1.3l-4.5,4.7v-17.7h-1.9v36.1l-8.7-8.4l-1.3,1.3
				l10,9.7v44.8h1.9v-28.6L1779.2,388.5z"/>
			<path class="st11" d="M2016.5,403.1l-16.1-5.6V395l14.8,2.5l-1.7-7.6l-11.1-3.5l2.1-1.1l8.4,1.6l-6.6-29.1l-10.1-1l9.7-0.9
				l-4.7-20.8l-8.8-6.4v-4.8l7,3.4l-13.1-57.8l-13.1,57.5l7.9-3l-8.5,5.6l-5.3,23.5l7-2.6l-1.8,7.3l-7.1,3.3l-0.5,2.2l11.9-4.2v1.4
				l-12.4,4.8l-3.8,16.9l12.7-2.9v2l-13.9,6.2l-1.3,5.5l12.6-4.2l-13.3,7.3l-1.8,8l26.5-7.8l-2.2,1.8l-24.9,8.3l-1.3,5.9h64.9
				L2016.5,403.1z"/>
			<path class="st12" d="M2000.4,397.5V395l14.8,2.5l-1.7-7.6l-11.1-3.5l2.1-1.1l8.4,1.6l-6.6-29.1l-10.1-1l9.7-0.9L2001,335
				l-7.1-5.2c-9.7,23.3-17.8,47.4-27,70.7l15.1-4.4l-2.2,1.8l-13.7,4.6c-0.9,2.2-1.8,4.4-2.7,6.6c-0.4,1-0.9,2-1.3,3h56.4l-2-9.1
				L2000.4,397.5z"/>
			<path class="st11" d="M1998.8,384.3l-0.9-1.7l-10.9,5.2v-32.3l5.9-6.2l-1.4-1.3l-4.5,4.7v-17.7h-1.9v36.1l-8.7-8.4l-1.4,1.3
				l10.1,9.7v44.8h1.9v-28.6L1998.8,384.3z"/>
			<path class="st13" d="M769.5,67c0.4-1.6,0.6-3.3,0.4-4.8c-0.4-3.3-2.6-6.3-5.6-7.7c-3-1.4-9.3-3.6-12-1.7
				c-2.2-15.8-16.8-29-32.8-29.8c-16-0.8-32.8,10.1-36.6,25.6c-6.3-7.7-17.4-11.2-27-8.6c-9.7,2.6-17.5,12.4-19.1,22.2
				c-5.2-4.5-14.6-2.6-17.5,3.7c-0.1,0.3-0.2,0.7-0.3,1.1H769.5L769.5,67z"/>
			<path class="st13" d="M1076.6,51c0.4-1.5,0.5-3,0.4-4.4c-0.3-3-2.3-5.7-5.1-7c-2.8-1.2-8.4-3.3-10.9-1.6
				c-2-14.4-15.2-26.3-29.8-27c-14.6-0.7-29.8,9.1-33.2,23.2c-5.8-7-15.8-10.1-24.5-7.8c-8.8,2.3-15.8,11.3-17.3,20.2
				c-4.7-4.1-13.2-2.3-15.9,3.3c-0.1,0.3-0.2,0.6-0.3,1H1076.6L1076.6,51z"/>
			<path class="st14" d="M153.5,425l-3.5,61.4c141.1,5.1,278.9,14.6,414.9,25.8c306.6,25.8,633.7,34.4,965.9,19.5
				c191.6-8.8,355-27.7,535.7-39.5l3.5-67.2H153.5z"/>
			<path class="st11" d="M2060.6,460.2l-73.7-26.2v-11.7l67.9,11.9l-8-35.8l-51.1-16.3l9.6-5.1l38.4,7.4l-30.4-136.5l-46.3-4.6
				l44.3-4.4l-21.7-97.7l-40.4-30.2V88.5l32.2,15.8L1921-167l-60,269.5l36.2-14l-39,26.2l-24.5,110l32.4-12.1l-8.4,34.1l-32.4,15.6
				l-2.3,10.4L1878,253v6.6l-56.9,22.3l-17.6,79.3l58.3-13.7v9.6l-63.9,29.1l-5.8,25.8l57.9-19.4l-61.2,34.1l-8.3,37.4l121.7-36.4
				l-10,8.4l-114.2,39l-6.1,27.5h298L2060.6,460.2z"/>
			<path class="st12" d="M1986.9,434v-11.7l67.9,11.9l-8-35.8l-51.1-16.3l9.6-5.1l38.4,7.4l-30.4-136.5l-46.3-4.6l44.3-4.4
				l-21.7-97.7l-32.8-24.5c-44.4,109.4-81.5,222.3-123.9,331.8l69.4-20.8l-9.9,8.4l-63.1,21.5c-4,10.3-8.1,20.7-12.2,30.9
				c-1.9,4.7-3.9,9.4-5.8,14.1H2070l-9.4-42.5L1986.9,434z"/>
			<path class="st11" d="M1979.3,372.2l-3.9-7.9l-49.9,24.6V237.3l27-29l-6.5-5.9l-20.5,22v-82.9h-8.8v169.1l-39.9-39.4l-6.2,6.2
				l46.1,45.6V533h8.8V398.7L1979.3,372.2z"/>
			<path class="st11" d="M398.4,510.7l-98.4-35V460l90.7,15.9L380,428.2l-68.3-21.8l12.8-6.8l51.3,9.9l-40.6-182.3l-61.9-6.1
				l59.2-5.8l-29-130.4l-54-40.3V14.2l43,21.1L212-327L131.9,32.9l48.4-18.7l-52,35l-32.7,147l43.2-16.1l-11.2,45.6l-43.2,20.8
				l-3.1,13.9l73.2-26.4v8.8l-76,29.8L55.1,378.4l77.9-18.2V373L47.6,412l-7.7,34.5l77.3-25.9L35.6,466l-11.1,50L187,467.4
				l-13.3,11.2l-152.5,52L13,567.4h398L398.4,510.7z"/>
			<path class="st12" d="M300,475.6V460l90.7,15.9L380,428.2l-68.3-21.8l12.8-6.8l51.3,9.8l-40.6-182.3l-61.8-6.1l59.2-5.8
				l-29-130.4L259.8,52C200.5,198.1,151,348.9,94.3,495.1l92.7-27.7l-13.3,11.2l-84.2,28.7c-5.4,13.8-10.8,27.6-16.3,41.3
				c-2.6,6.3-5.2,12.5-7.7,18.8H411l-12.6-56.7L300,475.6z"/>
			<path class="st11" d="M289.8,393.1l-5.2-10.5l-66.7,32.9V213l36.1-38.8l-8.7-7.9l-27.4,29.4V85h-11.8v225.9l-53.3-52.6l-8.3,8.3
				l61.6,60.9v280.4h11.8V428.6L289.8,393.1z"/>
			<path class="st11" d="M699.8,487.7c-4.2-4.2-8.5-8.3-12.9-12.4c-6-1-12-1.8-18-2.6c-12.5-1.6-25.1-2.8-37.8-3.7
				c-12.5,5.6-23.8,12.9-33.5,21.3c-1.7-1.6-3.4-3.2-5.1-4.8c-7.2-1.1-14.4-2.2-21.6-3.1c-15-1.9-30.2-3.4-45.3-4.5
				c-41.2,18.5-71.7,51.9-80.6,89.6c3.6-0.1,6.9-0.2,9.8-0.2c8.4,0,14.8,0.4,20.1,1.1c0,0,0,0,0,0c7.5,0.9,13,2.3,19.5,3.4
				c0,0,0-0.1,0.1-0.1c0,0,0,0.1-0.1,0.1c6.9,1.1,14.8,1.9,27.4,1.5c2.9-0.1,5.8-0.2,8.8-0.2c31.1-0.8,67.4-1.3,97.2-4.5
				c0.7-0.1,1.5-0.2,2.2-0.3c0,0,0,0,0,0c9.7-1.4,20.8-5.4,21.9-5.8c0,0,0-0.1,0-0.1c0,0,0,0.1,0,0.1c0.1,0,0.1-0.1,0.1-0.1
				c1-1.4,1.7-2.9,2.3-4.5c-2-3.4-4.2-6.8-6.4-10.1c22.8-0.5,47.5-1.2,68.3-3.4c0.6-0.1,1.2-0.2,1.8-0.2c0,0,0,0,0,0
				c8.1-1.2,17.3-4.5,18.2-4.8c0,0,0-0.1,0-0.1c0,0,0,0.1,0,0.1c0.1,0,0.1,0,0.1,0c0.8-1.2,1.4-2.4,1.9-3.7
				C728,518.6,714.8,502.7,699.8,487.7z"/>
			<path class="st15" d="M1007.5,447.6c1.5-1.5,3-2.9,4.6-4.3c2.1-0.3,4.2-0.6,6.3-0.9c4.4-0.6,8.8-1,13.3-1.3
				c12.1,5.4,21,15.2,23.6,26.3c-1.1,0-2,0-2.9,0c-2.5,0-4.3,0.1-5.9,0.3c-3.6-7.5-9.7-15.1-18.3-16.7c-16.2-3.4-27.7,3.8-33.5,15
				c0,0,0,0,0,0c-0.3-0.4-0.5-0.9-0.7-1.3C997.6,458.5,1002.3,452.8,1007.5,447.6z"/>
			<path class="st15" d="M984.6,464.1c-5.3,1.2-8,4.4-10,7.9c-1.8-0.3-3.9-1-4.1-1.1c3.7-7.2,11.1-11.8,21.5-9.6
				c5.5,1.1,9.4,5.9,11.8,10.7c-1.4,0.2-2.5,0.4-3.7,0.6c-2-2.8-4.3-5.5-7.9-7C990,464.3,987.3,463.6,984.6,464.1z"/>
			<path class="st15" d="M984.6,464.1c2.7-0.5,5.4,0.2,7.5,1.6c3.6,1.5,6,4.2,7.9,7c-1.3,0.2-2.8,0.4-5.1,0.3c-0.5,0-1.1,0-1.7,0
				c-5.8-0.1-12.7-0.2-18.2-0.8c-0.1,0-0.3,0-0.4-0.1C976.6,468.5,979.3,465.3,984.6,464.1z M991.6,465.5c-0.2-0.1-0.4-0.2-0.6-0.2
				C991.2,465.3,991.4,465.4,991.6,465.5z"/>
			<path class="st15" d="M978.7,459.2c0.9-0.9,1.9-1.9,2.9-2.8c1.3-0.2,2.7-0.4,4.1-0.6c2.8-0.4,5.7-0.6,8.5-0.8
				c7.7,3.5,13.5,9.8,15.1,16.8c-0.7,0-1.3,0-1.8,0c-1.6,0-2.8,0.1-3.8,0.2c-2.3-4.8-6.2-9.7-11.8-10.7c-10.4-2.2-17.8,2.4-21.5,9.6
				c0,0,0,0,0,0c-0.2-0.3-0.3-0.5-0.4-0.8C972.3,466.2,975.3,462.6,978.7,459.2z"/>
			<path class="st15" d="M968.8,456.7c-3.9,0.9-5.9,3.2-7.4,5.8c-1.3-0.2-2.9-0.7-3-0.8c2.7-5.3,8.2-8.7,15.8-7.1
				c4.1,0.8,7,4.4,8.7,7.9c-1,0.1-1.8,0.3-2.7,0.5c-1.5-2-3.2-4-5.9-5.1C972.7,456.8,970.8,456.3,968.8,456.7z"/>
			<path class="st15" d="M968.8,456.7c2-0.4,4,0.1,5.5,1.2c2.7,1.1,4.4,3.1,5.9,5.1c-1,0.2-2.1,0.3-3.8,0.2c-0.4,0-0.8,0-1.2,0
				c-4.3-0.1-9.3-0.2-13.5-0.6c-0.1,0-0.2,0-0.3,0C962.9,459.9,964.8,457.6,968.8,456.7z M973.9,457.7c-0.1-0.1-0.3-0.1-0.5-0.2
				C973.6,457.6,973.8,457.7,973.9,457.7z"/>
			<path class="st15" d="M964.4,453.1c0.7-0.7,1.4-1.4,2.2-2.1c1-0.2,2-0.3,3-0.4c2.1-0.3,4.2-0.5,6.3-0.6
				c5.7,2.6,9.9,7.2,11.2,12.4c-0.5,0-1,0-1.4,0c-1.2,0-2,0.1-2.8,0.2c-1.7-3.5-4.6-7.1-8.7-7.9c-7.7-1.6-13.1,1.8-15.9,7.1
				c0,0,0,0,0,0c-0.1-0.2-0.2-0.4-0.3-0.6C959.7,458.3,961.9,455.6,964.4,453.1z"/>
			<path class="st11" d="M1755.4,502.8c-2.9-2.9-5.9-5.8-9-8.6c-4.1-0.7-8.3-1.3-12.4-1.8c-8.7-1.1-17.4-1.9-26.1-2.6
				c-8.6,3.9-16.5,8.9-23.2,14.8c-1.2-1.1-2.4-2.2-3.6-3.3c-5-0.8-9.9-1.5-14.9-2.1c-10.4-1.3-20.9-2.3-31.4-3.1
				c-28.6,12.8-49.6,36-55.8,62c2.5-0.1,4.8-0.1,6.8-0.1c5.8,0,10.2,0.3,13.9,0.8c0,0,0,0,0,0c5.2,0.7,9,1.6,13.5,2.3c0,0,0,0,0-0.1
				c0,0,0,0,0,0.1c4.7,0.8,10.3,1.3,19,1.1c2-0.1,4-0.1,6.1-0.2c21.5-0.5,46.7-0.9,67.3-3.1c0.5-0.1,1-0.1,1.5-0.2c0,0,0,0,0,0
				c6.7-1,14.4-3.7,15.2-4c0,0,0,0,0-0.1c0,0,0,0,0,0.1c0,0,0.1,0,0.1,0c0.7-1,1.2-2,1.6-3.1c-1.4-2.4-2.9-4.7-4.4-7
				c15.8-0.4,32.9-0.8,47.3-2.4c0.4,0,0.8-0.1,1.3-0.2c0,0,0,0,0,0c5.6-0.8,12-3.1,12.6-3.3c0,0,0,0,0-0.1c0,0,0,0,0,0.1
				c0,0,0.1,0,0.1,0c0.6-0.8,1-1.7,1.3-2.6C1774.9,524.2,1765.7,513.2,1755.4,502.8z"/>
		</g>
	</g>
	<path d="M1074.6,264.5c-25.9-5.4-28.6-3.5-34.6,22.9c-1,0.1-1.9,0.3-2.9,0.4c-1.5-11.2-2.9-22.3-4.4-34c10-5.9,12.2-23.2,29.5-23.6
		c-2.1,2.8-3.9,5.1-5.6,7.5c-6.2,8.7-3.3,15,7.1,17.9C1067.2,256.6,1069.8,260.5,1074.6,264.5z"/>
	<path d="M893.8,226.9c1.7-7.8,14.4-13.1,6.2-23.9c7-5.3,8.3-8.1,6.7-38.4c1-0.4,1.9-0.7,2.9-1.1c2.6,7.7,6.5,15.3,7.6,23.3
		c2,14.3,1.3,14.4,18.4,12.7c-4.5,2.7-7,5.4-9.3,5.3c-8.5-0.3-13.1,4.2-17.5,10.5c-3.5,5-8.3,9.1-12.6,13.5
		C895.4,228.3,894.6,227.6,893.8,226.9z"/>
	<path d="M1232.7,213.7c5.3-0.7,10.7-1.4,16.1-2.1c-3.8,13-18.4,3.9-24.9,13.8c0-0.1,0.4,1.8,0.8,3.8c-1,0.5-1.9,1-2.9,1.5
		c-3.8-6.2-7.8-12.4-11.5-18.8c-3.8-6.7,0.8-6.5,5.5-5.9c1.9,0.3,5.3,1.2,5.7,0.5c6.8-11.3,17.9-5.9,27.7-6.1
		c-3.3,1.4-6.7,2.6-9.9,4.1c-3.3,1.6-6.5,3.5-9.7,5.3C1230.6,211.1,1231.6,212.4,1232.7,213.7z"/>
	<path d="M1505.5,0c5.1,7.1,10.2,11.7,12.3,17.4c3,8,5.6,14.9,16.3,14.8c-4.2,1.9-9.5,2.9-12.1,6.1c-2.8,3.4-2.4,9.1-4.5,13.3
		c-2.6,5.1-6.3,9.6-9.6,14.4c-0.8-0.5-1.7-0.9-2.5-1.4c1.4-3.2,2.1-7,4.2-9.6c6.8-8.2-3.8-16.1,0.9-25.6
		C1513.5,22.9,1507.9,12.4,1505.5,0z"/>
	<path d="M818.3,165.6c-10.8-0.9-21.7-1.9-32.5-2.8c13.2-8,1.2-18.1,4.4-27.6c3,3.8,5.6,7.1,8.9,11.2c0.7-4.5,1.3-8.3,1.8-12.1
		c0.9-0.2,1.8-0.4,2.7-0.6c1.1,5,4,10.5,2.8,14.8c-2.5,9,0.6,12.6,9.1,14c1.2,0.2,2.3,1.1,3.4,1.7
		C818.7,164.7,818.4,165.1,818.3,165.6z"/>
	<path d="M1465.2,83.7c-18.6-3.4-16.8,21.2-29.9,21.4c2.3-8.3,2.2-18.8,7.5-24.9c8-9.2,4.7-18.2,4.5-27.5c0.8-0.3,1.7-0.5,2.5-0.8
		c1.7,5.3,4.8,10.6,4.9,16C1454.9,75.4,1456.2,81.1,1465.2,83.7z"/>
	<path d="M825.5,221.3c0,9.3,0,18.5,0,29c1.4,0.8,4.3,2.3,7.8,4.2c-6.4,1.3-12.3,1.6-17.3,3.7c-5.3,2.2-9.9,6.3-14.9,9.6
		C809.4,251.9,817.2,237.1,825.5,221.3z"/>
	<path d="M1090.2,166.1c-1-17.6,11.2-29.1,24.5-27.5c-10.8,6.1-8.9,12.2,1.8,18.8c-7.4-0.7-12.5-2.5-16.5-1.1
		C1096.2,157.7,1093.7,162.4,1090.2,166.1z"/>
	<path d="M1362.7,65.7c2.7,6.5,5.5,13,8.8,20.8c1.1,0.2,3.8,0.7,5.1,0.9c-5.8,6.3-11.7,12.6-18.2,19.8c1.3-7.1,3.2-13.3,3.4-19.5
		c0.3-6.9-0.9-13.9-1.4-20.8C1361.1,66.5,1361.9,66.1,1362.7,65.7z"/>
	<path d="M868.5,121.7c-10-10.5-7.7-24.5,4.1-32.1c0.3,3.9-0.7,8.5,1.2,11.3c1.6,2.3,6.5,2.5,11.5,4.2c-5.9,1.9-11.1,2.2-13.5,4.8
		C869.4,112.7,869.5,117.8,868.5,121.7z"/>
	<path d="M1177.1,157.8c-2.6,3.4-5.1,6.9-8.4,11.3c4,0.3,6.6,0.5,11.7,0.9c-4.5,2.8-6.9,4.3-9.8,6c2,3.5,3.7,6.7,5.5,9.9
		c-0.5,0.6-1,1.1-1.5,1.7c-6-5.1-12-10.1-19.2-16.1c7-5.5,13.3-10.6,19.8-15.7C1175.8,156.4,1176.4,157.1,1177.1,157.8z"/>
	<path d="M726.5,184.2c2.6,3,4.3,5.1,6.8,8.1c0.5-3.5,0.8-6.2,1.2-9.3c1.1,0.5,2.4,0.7,2.5,1.2c1,2.9,2.9,6.2,2.2,8.6
		c-2.4,7.4,0.3,11.4,7,14.7c-7.4-0.7-14.8-1.3-20.7-1.8C725.9,198.4,726.2,192,726.5,184.2z"/>
	<path d="M1266.8,66.9c6.2-9.7,13-20.3,19.7-30.9c8.1,6.1-10.1,18.8,2.8,24C1281.9,62.3,1273.6,64.9,1266.8,66.9z"/>
	<path d="M1028.2,135.2c-1.7-4.6-3.8-10.3-6.5-17.4c6.8-1.7,13.2-3.3,19.7-4.9c0.3,0.8,0.6,1.7,0.9,2.5c-3,1.7-6,3.3-9.8,5.4
		c2.5,1.7,4.3,2.9,4.8,3.3C1034.5,127.6,1031.6,131.2,1028.2,135.2z"/>
	<path d="M738.3,112c-4.1-1.5-10.1-3.7-15.3-5.7c2.2-5.7,4.2-10.7,6.4-16.5c1,1.6,2.3,3.5,3.8,5.8c1.1-1.6,2.4-3.4,5.2-7.2
		C738.3,97.5,738.3,104.5,738.3,112z"/>
	<path d="M965.8,82.7c2.9,3.4,5.8,6.9,8,9.5c-2.1,3.8-5,8.7-7.6,13.4C958.2,98.9,958.1,89.1,965.8,82.7z"/>
	<path d="M1212.8,46.5c0-10.6,0-19.9,0-30.9c3.8,6.1,6.9,11,9.4,15C1219.3,35.4,1216.2,40.6,1212.8,46.5z"/>
</g>
<g id="Capa_2">
	<g>
		<path class="st11" d="M1002.1,447.7c1.5-1.5,3-2.9,4.6-4.3c2.1-0.3,4.2-0.6,6.3-0.9c4.4-0.6,8.8-1,13.3-1.3
			c12.1,5.4,21,15.2,23.6,26.3c-1.1,0-2,0-2.9,0c-2.5,0-4.3,0.1-5.9,0.3c0,0,0,0,0,0c-2.2,0.3-3.8,0.7-5.7,1c0,0,0,0,0,0
			c0,0,0,0,0,0c-2,0.3-4.3,0.6-8,0.5c-0.8,0-1.7,0-2.6-0.1c-9.1-0.2-19.7-0.4-28.5-1.3c-0.2,0-0.4-0.1-0.6-0.1c0,0,0,0,0,0
			c-2.8-0.4-6.1-1.6-6.4-1.7c0,0,0,0,0,0c0,0,0,0,0,0c0,0,0,0,0,0c-0.3-0.4-0.5-0.9-0.7-1.3C992.2,458.6,996.8,452.9,1002.1,447.7z"
			/>
		<path class="st11" d="M973.2,459.1c0.9-0.9,1.9-1.9,2.9-2.8c1.3-0.2,2.7-0.4,4.1-0.6c2.8-0.4,5.7-0.6,8.5-0.8
			c7.7,3.5,13.5,9.8,15.1,16.8c-0.7,0-1.3,0-1.8,0c-1.6,0-2.8,0.1-3.8,0.2c0,0,0,0,0,0c-1.4,0.2-2.4,0.4-3.7,0.6c0,0,0,0,0,0
			c0,0,0,0,0,0c-1.3,0.2-2.8,0.4-5.1,0.3c-0.5,0-1.1,0-1.7,0c-5.8-0.1-12.7-0.2-18.2-0.8c-0.1,0-0.3,0-0.4-0.1c0,0,0,0,0,0
			c-1.8-0.3-3.9-1-4.1-1.1c0,0,0,0,0,0c0,0,0,0,0,0c0,0,0,0,0,0c-0.2-0.3-0.3-0.5-0.4-0.8C966.9,466.1,969.9,462.5,973.2,459.1z"/>
		<path class="st11" d="M958.8,453c0.7-0.7,1.4-1.4,2.2-2.1c1-0.2,2-0.3,3-0.4c2.1-0.3,4.2-0.5,6.3-0.6c5.8,2.6,10,7.3,11.3,12.5
			c-0.5,0-1,0-1.4,0c-1.2,0-2.1,0.1-2.8,0.2c0,0,0,0,0,0c-1,0.1-1.8,0.3-2.7,0.5c0,0,0,0,0,0c0,0,0,0,0,0c-1,0.2-2.1,0.3-3.8,0.2
			c-0.4,0-0.8,0-1.2,0c-4.3-0.1-9.4-0.2-13.6-0.6c-0.1,0-0.2,0-0.3,0c0,0,0,0,0,0c-1.4-0.2-2.9-0.8-3.1-0.8c0,0,0,0,0,0c0,0,0,0,0,0
			c0,0,0,0,0,0c-0.1-0.2-0.2-0.4-0.3-0.6C954.1,458.2,956.3,455.5,958.8,453z"/>
	</g>
</g>
</svg>
