<?xml version="1.0" encoding="utf-8"?>
<!-- Generator: Adobe Illustrator 25.3.1, SVG Export Plug-In . SVG Version: 6.00 Build 0)  -->
<svg version="1.1" id="Capa_1" xmlns="http://www.w3.org/2000/svg" xmlns:xlink="http://www.w3.org/1999/xlink" x="0px" y="0px"
	 viewBox="0 0 1920 75" style="enable-background:new 0 0 1920 75;" xml:space="preserve">
<style type="text/css">
	.st0{clip-path:url(#SVGID_2_);fill:#1A2747;}
	.st1{clip-path:url(#SVGID_2_);fill:#C4C4C4;filter:url(#Adobe_OpacityMaskFilter);}
	.st2{clip-path:url(#SVGID_2_);mask:url(#mask0_1_);}
	.st3{fill:#C3DDEB;}
	.st4{fill:#45A7CE;}
	.st5{clip-path:url(#SVGID_2_);fill:#7A87A8;}
	.st6{clip-path:url(#SVGID_2_);fill:#46526F;}
	.st7{clip-path:url(#SVGID_2_);fill:#212E44;fill-opacity:0.2;}
	.st8{clip-path:url(#SVGID_2_);fill:#465472;fill-opacity:0.3;}
</style>
<g>
	<defs>
		<rect id="SVGID_1_" x="-13" width="1933" height="75"/>
	</defs>
	<clipPath id="SVGID_2_">
		<use xlink:href="#SVGID_1_"  style="overflow:visible;"/>
	</clipPath>
	<path class="st0" d="M1920,0H-13v75h1933V0z"/>
	<defs>
		<filter id="Adobe_OpacityMaskFilter" filterUnits="userSpaceOnUse" x="-86.1" y="-9.8" width="2006.1" height="343.2">
			<feColorMatrix  type="matrix" values="1 0 0 0 0  0 1 0 0 0  0 0 1 0 0  0 0 0 1 0"/>
		</filter>
	</defs>
	<mask maskUnits="userSpaceOnUse" x="-86.1" y="-9.8" width="2006.1" height="343.2" id="mask0_1_">
		<path class="st1" d="M1920,3.9H-13V75h1933V3.9z"/>
	</mask>
	<g class="st2">
		<path class="st3" d="M1907.2-0.2l-42.1,1.5l-0.9,0l-0.5,0.1l-14.5,3.8l-0.6,0.1l0.5,0.2c5.5,2.1,11.1,4.2,13.5,6.3
			c0.6,0.5,0.3,1.1-0.6,1.1c-5.2,0.6-5.1,1.3-5.7,1.9c-0.7,1.1,0.1,2.2,1.1,3.2c-2.3,0.5-4.9,1-7.6,1.4c-1.5,0.2-3.1,0.4-4.7,0.6
			c-0.8,0.1-1.6,0.1-2.3,0.2s-0.9,0-3.1,0.2c-6,0.4-8.5,1-11.5,1.6c-2.8,0.6-5.2,1.2-7.4,1.8l-0.3,0.1l-0.1,0.1l-4.9,5.4l-51,3.5
			l-34.3-2l-32.1-3.1l-2.1-0.2l-25.6-1.6c-0.7-0.1-1.2-0.2-1.8-0.4c-1.6-0.2-3.2-0.4-4.8-0.6c-3.3-0.4-6.5-0.7-9.9-1.1l-0.2,0h-0.1
			c-9.4-0.6-17.7-1.3-29-1.6c-10.5,0.2-20.4,0.2-30.1,0.2c-4.6-0.1-9.6-0.3-14.1-0.5c-4.6-0.2-9.3-0.5-12-1
			c-6.1-1.1-11.6-2.3-17.1-3.5l-0.2,0h-0.2l-18.4-1.7l5.7-3.9l2.1-8l-3.2,8l-6.6,4l-0.2,0.1l0.6,0.1l18.4,1.8
			c5.2,1.2,10.4,2.4,16.5,3.6c3.2,0.7,8.7,1,13.3,1.2c4.9,0.2,9.6,0.5,15,0.6c10.4,0,20.7,0,30.2-0.1c8.3,0.2,17.8,1,26.3,1.6
			c3.2,0.3,6.3,0.7,9.2,1c0.9,0.1,1.7,0.2,2.5,0.4c-5.5,0.4-14.6,1-17.2,1.2c-3.9,0.3-20.7,1.1-30.6,1.6c-9.8,0.5-19.9,1.9-28.7,2.5
			c-8.9,0.5-22.7,1.2-22.7,1.2l4.1,1.4c-0.7,0.1-2.2,0.5-2.2,0.5c-0.1,0-0.8,0.2-1.7,0.3c-1.8,0.3-4.1,0.6-6.6,0.9
			c-5,0.6-10.5,1.1-16.2,1.6c-11.3,1-23.3,2-35.1,2.9l-2.2,0.2l-1.4,0.3c0,0-18.1-0.3-27-0.1c-6.6,0.1-20.9-0.5-28-0.8l-2-0.1
			l-0.8-0.1h-1.4c-11,0.1-22.2,0.1-33,0c-10.6-0.1-22.1-0.3-28.7-1c-12.8-1.1-24.3-1.2-36.1-1.5c-11.7-0.2-23.1-0.3-35-0.3h-1.9
			l-2.9,0.2l-44.9,3.1l-0.6-0.3l-5.9-0.4c-14.6-1-29.7-2.5-41.7-4.1c-12.1-1.6-21.4-3.5-22.9-5.5c-1.7-1.7-8.1-3.4-15.8-4.5
			c-7.8-1.2-16.7-2-25.7-2.7c-13.2-1-26.3-1.6-40.1-2.1c-5.8-0.4-11.5-0.8-16-1.4c-2.9-0.4-5.2-0.7-6.3-1.1c-0.9-0.2-0.8-1-1-1.6
			l-1.7-7.5l21.9-5l20-3.6l1-0.2l-0.8-0.2l-16.7-4.3l24.3-5.6L1106-4.3l-0.4,0.1l0.4,0.1l14.5,4.4l-20.6,3.3h-0.1l-0.2,0l-24.7,5
			l-0.8,0.1v0.2l-1.2,7.6c0.2,0.6-1,1.2,0.9,2.2c1.7,0.7,4.6,1.2,7.7,1.7l-0.8,0.1l-67.2,7.3c-8.8,0.7-28.2,2.3-31.2,2.4
			c-3.9,0.1-13.9,1.2-19.8,1.4c-3.5,0.1-15.6,0.2-25.4,0.4L913.4,32c-4.7,0-9.2,0.1-13.5,0.2l-39.7,0.4c0,0-10.9,0.5-15.7,0.1
			c-3.5-0.3-24.5-1.5-36.5-2.1c-1.5-0.1-3-0.3-4.4-0.4l-16.5-1.6l-2.2-0.2h-0.2l-31.2-4.1c-5.6-0.7-11-1.4-17-2.1
			c-6.2-0.6-12.6-1.1-19.1-1.6c-6.5-0.5-12.9-1-19-1.6c-5.7-0.6-12.6-1.2-12.5-2.3c-2.6-2.1-6.5-4.1-10.1-6.2l-2.2,0.1
			c3.6,2.1,7.3,4.1,9.7,6.1c0.3,0.2,0.3,0.5,1.3,0.8c0.8,0.2,2.2,0.5,3.5,0.7c2.7,0.4,5.7,0.7,8.8,1c6.2,0.6,12.6,1.1,19.1,1.6
			c6.5,0.5,12.8,1,18.7,1.6c5.7,0.6,11.1,1.4,16.6,2.1l29.3,3.9l-24.3,1.1l0.1-0.1h-5.2l-86.5,0.3h-0.4h-0.3l-37.4,2
			c-1.6-0.4-3.4-0.7-4.9-1c-2.9-0.6-5.3-1.3-7-1.8c-3.7-1.2-7.6-1.7-11.4-2.5c-7.8-1.3-15.8-2.5-24-3.6c-15.8-2.2-32.1-4.2-48.8-6.2
			c-7.7-1.8-15.7-3.6-24.3-5.3c-9.3-1.8-18.1-3.6-30.9-5.3c-3.6-0.4-6.8-0.9-13.9-1.2c-6.6-0.2-11.4-0.2-16-0.1
			c-9.1,0.2-16.8,0.5-24.4,0.9C406,6.5,392,7.4,377.9,8.5l-1.1,0.1l-0.8,0.1L270.8,22.5l-85.6,6.8L131.4,31l-3.2,0.1l-1.2,0.4
			L87.9,44.8h-0.1c-0.3,0-0.6,0.1-0.8,0.1c-0.6,0,0.5,0-0.6,0c-2,0.1-2.6,0.2-3.7,0.3c-0.6,0.1-0.9,0.1-1.4,0.2
			c-31.7,1.6-63.4,3.3-95.1,5C-30.1,51.3-46.6,52.1-63,53c16.5-0.7,32.9-1.5,49.3-2.2v13.5l-13.8-0.6h-0.1l-58.4-0.9l58.3,1.1
			l14,0.6v265.3H1920V-0.7v-0.5C1915.7-0.9,1911.5-0.5,1907.2-0.2z"/>
		<path class="st4" d="M1865,22.7l42-1.4c4.3-0.3,8.6-0.6,12.8-0.9v0.5v312.5H-13.8V82.5l-14-0.6l-58.3-1l58.4,0.9h0.1l13.8,0.5
			V69.6c-16.4,0.7-32.8,1.4-49.3,2.1c16.4-0.8,32.9-1.6,49.3-2.5c31.7-1.6,63.3-3.2,95.1-4.7c0.5-0.1,0.8-0.1,1.4-0.2
			c1-0.1,1.8-0.2,3.7-0.3c1-0.1,0.1,0,0.6,0c0.3,0,0.6,0,0.8-0.1h0.1L127,51.1l1.2-0.4l3.2-0.1l53.8-1.5l85.6-6.4l105.2-13.1
			l0.8-0.1l1.1-0.1c14.1-1,28.1-1.9,43.3-2.7c7.6-0.4,15.4-0.7,24.4-0.9c4.6-0.1,9.5-0.1,16,0.1c7.1,0.3,10.4,0.8,13.9,1.2
			c12.8,1.6,21.6,3.3,30.9,5c8.5,1.6,16.6,3.3,24.3,5c16.7,1.9,33,3.8,48.8,5.9c8.1,1.1,16.2,2.1,24,3.4c3.8,0.7,7.7,1.2,11.4,2.3
			c1.7,0.5,4.2,1.1,7,1.7c1.5,0.3,3.3,0.6,4.9,1l37.4-1.9h0.3h0.4l86.5-0.3h5.2l-0.1,0l24.3-1.1l4-0.2h0.2l2.2,0.2l16.5,1.5
			c1.5,0.1,3,0.3,4.4,0.4c12.1,0.6,33.1,1.7,36.5,2c4.9,0.4,15.7-0.1,15.7-0.1l39.7-0.3c4.3-0.1,8.8-0.2,13.5-0.2l23.8-0.1
			c9.7-0.1,22-0.2,25.4-0.3c5.9-0.1,15.8-1.2,19.8-1.3c3.1-0.1,22.4-1.6,31.2-2.3l67.2-6.9l0.8-0.1l26.4,0.2
			c13.8,0.5,26.9,1.1,40.1,2c9,0.6,17.9,1.5,25.7,2.6c7.8,1.1,14.2,2.6,15.8,4.3c1.6,1.9,10.9,3.7,22.8,5.2s27.1,2.9,41.7,3.8
			l5.9,0.4l0.6,0.3l44.9-2.9l2.9-0.2h1.9c11.9,0,23.3,0.1,35,0.2c11.7,0.2,23.2,0.4,36.1,1.4c6.6,0.7,18,0.9,28.7,1
			c10.9,0.1,22.1,0.1,33,0h1.4l0.8,0.1l2,0.1c7.1,0.3,21.4,0.9,28,0.7c8.9-0.1,27,0.1,27,0.1l1.4-0.3l2.2-0.1
			c11.9-0.9,23.9-1.7,35.1-2.7c5.6-0.5,11.2-1,16.2-1.5c2.4-0.3,4.9-0.5,6.6-0.8c0.8-0.1,1.6-0.2,1.7-0.3c0,0,1.4-0.4,2.2-0.5
			l-4.1-1.3c0,0,13.9-0.6,22.8-1.2c8.9-0.5,18.8-1.8,28.7-2.3c9.9-0.5,26.7-1.3,30.6-1.6c2.2-0.1,8.7-0.6,13.9-0.9l3.3-0.2
			c-0.8-0.1-1.6-0.2-2.5-0.3l10.7,0.2l25.6,1.6l2.1,0.2l32.1,2.9l34.3,1.9l51-3.3l4.8-5.2l0.1-0.1l0.3-0.1c2.2-0.6,4.6-1.1,7.4-1.7
			c3-0.5,5.6-1.1,11.6-1.5c2.2-0.1,2.3-0.1,3.1-0.1c0.8,0,1.5-0.1,2.3-0.2c1.6-0.1,3.2-0.4,4.7-0.6c2.7-0.4,5.3-0.8,7.6-1.3
			c-1-1-1.8-2-1.1-3.1c0.7-0.5,0.6-1.2,5.7-1.8c0.8,0,1.1-0.6,0.6-1.1c-2.5-2-8-4-13.5-6l-0.5-0.1l0.6-0.1l14.5-3.6l0.5-0.1
			L1865,22.7z"/>
	</g>
	<path class="st5" d="M1907.2-0.2l-42.1,1.5l-0.9,0l-0.5,0.1l-14.5,3.8l-0.6,0.1l0.5,0.2c5.5,2.1,11.1,4.2,13.5,6.3
		c0.6,0.5,0.3,1.1-0.6,1.1c-5.2,0.6-5.1,1.3-5.7,1.9c-0.7,1.1,0.1,2.2,1.1,3.2c-2.3,0.5-4.9,1-7.6,1.4c-1.5,0.2-3.1,0.4-4.7,0.6
		c-0.8,0.1-1.6,0.1-2.3,0.2s-0.9,0-3.1,0.2c-6,0.4-8.5,1-11.5,1.6c-2.8,0.6-5.2,1.2-7.4,1.8l-0.3,0.1l-0.1,0.1l-4.9,5.4l-51,3.5
		l-34.3-2l-32.1-3.1l-2.1-0.2l-25.6-1.6c-0.7-0.1-1.2-0.2-1.8-0.4c-1.6-0.2-3.2-0.4-4.8-0.6c-3.3-0.4-6.5-0.7-9.9-1.1l-0.2,0h-0.1
		c-9.4-0.6-17.7-1.3-29-1.6c-10.5,0.2-20.4,0.2-30.1,0.2c-4.6-0.1-9.6-0.3-14.1-0.5c-4.6-0.2-9.3-0.5-12-1
		c-6.1-1.1-11.6-2.3-17.1-3.5l-0.2,0h-0.2l-18.4-1.7l5.7-3.9l2.1-8l-3.2,8l-6.6,4l-0.2,0.1l0.6,0.1l18.4,1.8
		c5.2,1.2,10.4,2.4,16.5,3.6c3.2,0.7,8.7,1,13.3,1.2c4.9,0.2,9.6,0.5,15,0.6c10.4,0,20.7,0,30.2-0.1c8.3,0.2,17.8,1,26.3,1.6
		c3.2,0.3,6.3,0.7,9.2,1c0.9,0.1,1.7,0.2,2.5,0.4c-5.5,0.4-14.6,1-17.2,1.2c-3.9,0.3-20.7,1.1-30.6,1.6c-9.8,0.5-19.9,1.9-28.7,2.5
		c-8.9,0.5-22.7,1.2-22.7,1.2l4.1,1.4c-0.7,0.1-2.2,0.5-2.2,0.5c-0.1,0-0.8,0.2-1.7,0.3c-1.8,0.3-4.1,0.6-6.6,0.9
		c-5,0.6-10.5,1.1-16.2,1.6c-11.3,1-23.3,2-35.1,2.9l-2.2,0.2l-1.4,0.3c0,0-18.1-0.3-27-0.1c-6.6,0.1-20.9-0.5-28-0.8l-2-0.1
		l-0.8-0.1h-1.4c-11,0.1-22.2,0.1-33,0c-10.6-0.1-22.1-0.3-28.7-1c-12.8-1.1-24.3-1.2-36.1-1.5c-11.7-0.2-23.1-0.3-35-0.3h-1.9
		l-2.9,0.2l-44.9,3.1l-0.6-0.3l-5.9-0.4c-14.6-1-29.7-2.5-41.7-4.1c-12.1-1.6-21.4-3.5-22.9-5.5c-1.7-1.7-8.1-3.4-15.8-4.5
		c-7.8-1.2-16.7-2-25.7-2.7c-13.2-1-26.3-1.6-40.1-2.1c-5.8-0.4-11.5-0.8-16-1.4c-2.9-0.4-5.2-0.7-6.3-1.1c-0.9-0.2-0.8-1-1-1.6
		l-1.7-7.5l21.9-5l20-3.6l1-0.2l-0.8-0.2l-16.7-4.3l24.3-5.6L1106-4.3l-0.4,0.1l0.4,0.1l14.5,4.4l-20.6,3.3h-0.1l-0.2,0l-24.7,5
		l-0.8,0.1v0.2l-1.2,7.6c0.2,0.6-1,1.2,0.9,2.2c1.7,0.7,4.6,1.2,7.7,1.7l-0.8,0.1l-67.2,7.3c-8.8,0.7-28.2,2.3-31.2,2.4
		c-3.9,0.1-13.9,1.2-19.8,1.4c-3.5,0.1-15.6,0.2-25.4,0.4L913.4,32c-4.7,0-9.2,0.1-13.5,0.2l-39.7,0.4c0,0-10.9,0.5-15.7,0.1
		c-3.5-0.3-24.5-1.5-36.5-2.1c-1.5-0.1-3-0.3-4.4-0.4l-16.5-1.6l-2.2-0.2h-0.2l-31.2-4.1c-5.6-0.7-11-1.4-17-2.1
		c-6.2-0.6-12.6-1.1-19.1-1.6c-6.5-0.5-12.9-1-19-1.6c-5.7-0.6-12.6-1.2-12.5-2.3c-2.6-2.1-6.5-4.1-10.1-6.2l-2.2,0.1
		c3.6,2.1,7.3,4.1,9.7,6.1c0.3,0.2,0.3,0.5,1.3,0.8c0.8,0.2,2.2,0.5,3.5,0.7c2.7,0.4,5.7,0.7,8.8,1c6.2,0.6,12.6,1.1,19.1,1.6
		c6.5,0.5,12.8,1,18.7,1.6c5.7,0.6,11.1,1.4,16.6,2.1l29.3,3.9l-24.3,1.1l0.1-0.1h-5.2l-86.5,0.3h-0.4h-0.3l-37.4,2
		c-1.6-0.4-3.4-0.7-4.9-1c-2.9-0.6-5.3-1.3-7-1.8c-3.7-1.2-7.6-1.7-11.4-2.5c-7.8-1.3-15.8-2.5-24-3.6c-15.8-2.2-32.1-4.2-48.8-6.2
		c-7.7-1.8-15.7-3.6-24.3-5.3c-9.3-1.8-18.1-3.6-30.9-5.3c-3.6-0.4-6.8-0.9-13.9-1.2c-6.6-0.2-11.4-0.2-16-0.1
		c-9.1,0.2-16.8,0.5-24.4,0.9C406,6.5,392,7.4,377.9,8.5l-1.1,0.1l-0.8,0.1L270.8,22.5l-85.6,6.8L131.4,31l-3.2,0.1l-1.2,0.4
		L87.9,44.8h-0.1c-0.3,0-0.6,0.1-0.8,0.1c-0.6,0,0.5,0-0.6,0c-2,0.1-2.6,0.2-3.7,0.3c-0.6,0.1-0.9,0.1-1.4,0.2
		c-31.7,1.6-63.4,3.3-95.1,5C-30.1,51.3-46.6,52.1-63,53c16.5-0.7,32.9-1.5,49.3-2.2v13.5l-13.8-0.6h-0.1l-58.4-0.9l58.3,1.1l14,0.6
		v265.3H1920V-0.7v-0.5C1915.7-0.9,1911.5-0.5,1907.2-0.2z"/>
	<path class="st6" d="M1865,22.7l42-1.4c4.3-0.3,8.6-0.6,12.8-0.9v0.5v312.5H-13.8V82.5l-14-0.6l-58.3-1l58.4,0.9h0.1l13.8,0.5V69.6
		c-16.4,0.7-32.8,1.4-49.3,2.1c16.4-0.8,32.9-1.6,49.3-2.5c31.7-1.6,63.3-3.2,95.1-4.7c0.5-0.1,0.8-0.1,1.4-0.2
		c1-0.1,1.8-0.2,3.7-0.3c1-0.1,0.1,0,0.6,0c0.3,0,0.6,0,0.8-0.1h0.1L127,51.1l1.2-0.4l3.2-0.1l53.8-1.5l85.6-6.4l105.2-13.1l0.8-0.1
		l1.1-0.1c14.1-1,28.1-1.9,43.3-2.7c7.6-0.4,15.4-0.7,24.4-0.9c4.6-0.1,9.5-0.1,16,0.1c7.1,0.3,10.4,0.8,13.9,1.2
		c12.8,1.6,21.6,3.3,30.9,5c8.5,1.6,16.6,3.3,24.3,5c16.7,1.9,33,3.8,48.8,5.9c8.1,1.1,16.2,2.1,24,3.4c3.8,0.7,7.7,1.2,11.4,2.3
		c1.7,0.5,4.2,1.1,7,1.7c1.5,0.3,3.3,0.6,4.9,1l37.4-1.9h0.3h0.4l86.5-0.3h5.2l-0.1,0l24.3-1.1l4-0.2h0.2l2.2,0.2l16.5,1.5
		c1.5,0.1,3,0.3,4.4,0.4c12.1,0.6,33.1,1.7,36.5,2c4.9,0.4,15.7-0.1,15.7-0.1l39.7-0.3c4.3-0.1,8.8-0.2,13.5-0.2l23.8-0.1
		c9.7-0.1,22-0.2,25.4-0.3c5.9-0.1,15.8-1.2,19.8-1.3c3.1-0.1,22.4-1.6,31.2-2.3l67.2-6.9l0.8-0.1l26.4,0.2
		c13.8,0.5,26.9,1.1,40.1,2c9,0.6,17.9,1.5,25.7,2.6c7.8,1.1,14.2,2.6,15.8,4.3c1.6,1.9,10.9,3.7,22.8,5.2s27.1,2.9,41.7,3.8
		l5.9,0.4l0.6,0.3l44.9-2.9l2.9-0.2h1.9c11.9,0,23.3,0.1,35,0.2c11.7,0.2,23.2,0.4,36.1,1.4c6.6,0.7,18,0.9,28.7,1
		c10.9,0.1,22.1,0.1,33,0h1.4l0.8,0.1l2,0.1c7.1,0.3,21.4,0.9,28,0.7c8.9-0.1,27,0.1,27,0.1l1.4-0.3l2.2-0.1
		c11.9-0.9,23.9-1.7,35.1-2.7c5.6-0.5,11.2-1,16.2-1.5c2.4-0.3,4.9-0.5,6.6-0.8c0.8-0.1,1.6-0.2,1.7-0.3c0,0,1.4-0.4,2.2-0.5
		l-4.1-1.3c0,0,13.9-0.6,22.8-1.2c8.9-0.5,18.8-1.8,28.7-2.3c9.9-0.5,26.7-1.3,30.6-1.6c2.2-0.1,8.7-0.6,13.9-0.9l3.3-0.2
		c-0.8-0.1-1.6-0.2-2.5-0.3l10.7,0.2l25.6,1.6l2.1,0.2l32.1,2.9l34.3,1.9l51-3.3l4.8-5.2l0.1-0.1l0.3-0.1c2.2-0.6,4.6-1.1,7.4-1.7
		c3-0.5,5.6-1.1,11.6-1.5c2.2-0.1,2.3-0.1,3.1-0.1c0.8,0,1.5-0.1,2.3-0.2c1.6-0.1,3.2-0.4,4.7-0.6c2.7-0.4,5.3-0.8,7.6-1.3
		c-1-1-1.8-2-1.1-3.1c0.7-0.5,0.6-1.2,5.7-1.8c0.8,0,1.1-0.6,0.6-1.1c-2.5-2-8-4-13.5-6l-0.5-0.1l0.6-0.1l14.5-3.6l0.5-0.1
		L1865,22.7z"/>
	<path class="st7" d="M128.9,50.1v-19l35.1-1.4c105.8-3.9,177-16.5,208.4-20.4C397.5,6.1,434,5.1,449.2,5v20.6
		c-38.2-1.1-136.5,11-180.8,17.2l-83.8,6.2L128.9,50.1z"/>
	<path class="st8" d="M627.1,51.7V32l37-2.3h85.2c13.9,0,28.6-0.8,34.2-1.2c10.9,1.6,47.3,3.8,64.2,4.8v19.9c-6.4,0-45.4-3.3-64.2-5
		l-25.8,2c-27.2-0.2-83.9-0.4-93.7,0S635.4,51.4,627.1,51.7z"/>
	<path class="st8" d="M1087,40.5V18.8c7.5,2.1,35.1,2.3,52.9,3c14.2,0.6,33.1,3.4,40.7,4.8v20.1C1164.5,43,1111.5,41.1,1087,40.5z"
		/>
	<path class="st8" d="M1564.1,32.7l3.3,1.6l-3.3,18.1c10.1-0.6,32.8-2,42.1-2.8c9.4-0.9,40.1-2.6,54.3-3.4V26.1
		c-19.8,1.4-61.2,4.3-68.4,5.2C1585.1,32.1,1570.5,32.6,1564.1,32.7z"/>
	<path class="st8" d="M1815.6,49.2V29.9l5.6-6c3.4-1.7,13.6-2.7,18.3-3c12.7-1.3,16.9-2.2,17.3-2.5l-8.9,8.5l8.9,11.9
		c-2.8,0.5-10.3,1.6-17.3,2.1c-5.6,0.4-14.5,2.3-18.3,3.2L1815.6,49.2z"/>
</g>
</svg>
