<?xml version="1.0" encoding="utf-8"?>
<!-- Generator: Adobe Illustrator 25.3.1, SVG Export Plug-In . SVG Version: 6.00 Build 0)  -->
<svg version="1.1" id="Capa_1" xmlns="http://www.w3.org/2000/svg" xmlns:xlink="http://www.w3.org/1999/xlink" x="0px" y="0px"
	 viewBox="0 0 178.2 41.5" style="enable-background:new 0 0 178.2 41.5;" xml:space="preserve">
<style type="text/css">
	.st0{fill:#FFFFFF;}
</style>
<path class="st0" d="M177.7,41.5c0.4-1.5,0.4-3,0.4-4.5c-0.4-3-2.4-6-5.1-7.3c-2.8-1.3-8.6-3.4-11.1-1.7
	c-2.1-14.8-15.6-27.2-30.6-28c-15-0.6-30.6,9.4-34,23.9c-6-7.3-16.2-10.5-25.2-8.1c-9,2.4-16.2,11.8-17.7,21
	c-4.9-4.3-13.7-2.4-16.2,3.4c-0.2,0.2-0.2,0.6-0.2,1.1h139.8V41.5z"/>
<path class="st0" d="M65.4,39.5c0.2-0.7,0.2-1.4,0.2-2.1c-0.2-1.4-1.1-2.8-2.4-3.4c-1.3-0.6-4-1.6-5.2-0.8
	c-1-6.9-7.3-12.7-14.3-13.1c-7-0.3-14.3,4.4-15.9,11.2c-2.8-3.4-7.6-4.9-11.8-3.8c-4.2,1.1-7.6,5.5-8.3,9.8c-2.3-2-6.4-1.1-7.6,1.6
	C0,39,0,39.2,0,39.4h65.4V39.5z"/>
</svg>
