<?xml version="1.0" encoding="utf-8"?>
<!-- Generator: Adobe Illustrator 25.3.1, SVG Export Plug-In . SVG Version: 6.00 Build 0)  -->
<svg version="1.1" id="Capa_1" xmlns="http://www.w3.org/2000/svg" xmlns:xlink="http://www.w3.org/1999/xlink" x="0px" y="0px"
	 viewBox="0 0 97.5 31.6" style="enable-background:new 0 0 97.5 31.6;" xml:space="preserve">
<style type="text/css">
	.st0{fill:#1A2747;}
</style>
<g>
	<path class="st0" d="M49.6,8.9C51,7.5,52.3,6.3,53.8,5c1.9-0.3,3.8-0.5,5.7-0.8c4-0.5,8-0.9,12-1.2c11,4.9,19,13.8,21.4,23.8
		c-1,0-1.8,0-2.6,0c-2.3,0-3.9,0.1-5.3,0.3c-2,0.3-3.4,0.6-5.2,0.9c-1.8,0.3-3.9,0.5-7.2,0.5c-0.7,0-1.5,0-2.4-0.1
		c-8.2-0.2-17.8-0.4-25.8-1.2c-0.2,0-0.4-0.1-0.5-0.1c-2.5-0.4-5.5-1.4-5.8-1.5c-0.3-0.4-0.5-0.8-0.6-1.2
		C40.7,18.8,44.8,13.6,49.6,8.9z"/>
	<path class="st0" d="M23.5,19.2c0.8-0.8,1.7-1.7,2.6-2.5c1.2-0.2,2.4-0.4,3.7-0.5c2.5-0.4,5.2-0.5,7.7-0.7
		c7,3.2,12.2,8.9,13.7,15.2c-0.6,0-1.2,0-1.6,0c-1.4,0-2.5,0.1-3.4,0.2c-1.3,0.2-2.2,0.4-3.3,0.5c-1.2,0.2-2.5,0.4-4.6,0.3
		c-0.5,0-1,0-1.5,0c-5.2-0.1-11.5-0.2-16.5-0.7c-0.1,0-0.3,0-0.4-0.1c-1.6-0.3-3.5-0.9-3.7-1c-0.2-0.3-0.3-0.5-0.4-0.7
		C17.8,25.5,20.5,22.3,23.5,19.2z"/>
	<path class="st0" d="M10.4,13.7c0.6-0.6,1.3-1.3,2-1.9c0.9-0.2,1.8-0.3,2.7-0.4c1.9-0.3,3.8-0.5,5.7-0.5c5.2,2.4,9,6.6,10.2,11.3
		c-0.5,0-0.9,0-1.3,0c-1.1,0-1.9,0.1-2.5,0.2c-0.9,0.1-1.6,0.3-2.4,0.5c-0.9,0.2-1.9,0.3-3.4,0.2c-0.4,0-0.7,0-1.1,0
		c-3.9-0.1-8.5-0.2-12.3-0.5c-0.1,0-0.2,0-0.3,0c-1.3-0.2-2.6-0.7-2.8-0.7c-0.1-0.2-0.2-0.4-0.3-0.5C6.2,18.4,8.2,15.9,10.4,13.7z"
		/>
</g>
</svg>
