<?xml version="1.0" encoding="utf-8"?>
<!-- Generator: Adobe Illustrator 25.3.1, SVG Export Plug-In . SVG Version: 6.00 Build 0)  -->
<svg version="1.1" id="Capa_1" xmlns="http://www.w3.org/2000/svg" xmlns:xlink="http://www.w3.org/1999/xlink" x="0px" y="0px"
	 viewBox="0 0 75.6 11.2" style="enable-background:new 0 0 75.6 11.2;" xml:space="preserve">
<style type="text/css">
	.st0{fill:#50607F;}
</style>
<g>
	<g>
		<path class="st0" d="M31.9,7.6c-0.4-0.4-0.7-0.7-1.1-1.1c-0.5-0.1-1-0.2-1.5-0.2c-1.1-0.1-2.1-0.2-3.2-0.3
			c-0.7,0.3-1.3,0.7-1.9,1.1c-0.7-0.9-1.5-1.7-2.3-2.5c-0.7-0.7-1.5-1.5-2.2-2.2c-1-0.2-2-0.3-3.1-0.5c-2.1-0.3-4.3-0.5-6.5-0.7
			C5.6,3.3,1.9,6.7,0,10.6h34.6C33.7,9.6,32.8,8.6,31.9,7.6z"/>
		<path class="st0" d="M49.5,7.6c-0.4-0.4-0.7-0.7-1.1-1.1c-0.5-0.1-1-0.2-1.5-0.2c-1.1-0.1-2.1-0.2-3.2-0.3c-2.3,1-4.1,2.8-5.1,4.8
			h13.5C51.4,9.6,50.5,8.6,49.5,7.6z"/>
	</g>
	<g>
		<path class="st0" d="M55.1,5.9h20.1c-1.1-2.3-3.2-4.2-5.9-5.4c-1.3,0.1-2.6,0.2-3.8,0.4c-0.6,0.1-1.2,0.2-1.8,0.3
			c-0.4,0.4-0.9,0.9-1.3,1.3c-0.5,0.5-0.9,0.9-1.3,1.4c-0.3-0.2-0.7-0.5-1.1-0.6c-0.6,0.1-1.2,0.1-1.9,0.2c-0.3,0-0.6,0.1-0.9,0.1
			c-0.2,0.2-0.4,0.4-0.6,0.6C56.1,4.7,55.6,5.3,55.1,5.9z"/>
		<path class="st0" d="M45,6h7.8c-0.6-1.2-1.6-2.2-3-2.8c-0.6,0.1-1.2,0.1-1.9,0.2c-0.3,0-0.6,0.1-0.9,0.1c-0.2,0.2-0.4,0.4-0.6,0.6
			C45.9,4.7,45.4,5.3,45,6z"/>
	</g>
</g>
</svg>
