<?xml version="1.0" encoding="utf-8"?>
<!-- Generator: Adobe Illustrator 25.3.1, SVG Export Plug-In . SVG Version: 6.00 Build 0)  -->
<svg version="1.1" id="Capa_1" xmlns="http://www.w3.org/2000/svg" xmlns:xlink="http://www.w3.org/1999/xlink" x="0px" y="0px"
	 viewBox="0 0 165.4 374.5" style="enable-background:new 0 0 165.4 374.5;" xml:space="preserve">
<style type="text/css">
	.st0{fill:#1A2747;}
</style>
<path class="st0" d="M160,350.6l-41-14.7v-6.5l37.6,6.7l-4.4-20l-28.4-9.1l5.3-2.8l21.4,4.2l-16.8-76.3l-25.7-2.6l24.7-2.5
	l-12.1-54.6l-22.4-16.8V143l17.9,8.8L82.6,0L49.4,150.7l20.1-7.9l-21.7,14.7l-13.7,61.6l18-6.8l-4.7,19.1l-18,8.8l-1.2,5.8l30.5-11
	v3.7L27.1,251l-9.8,44.3l32.4-7.7v5.4l-35.5,16.3L11,323.8l32.2-10.9L9.3,332l-4.6,21l67.6-20.3l-5.6,4.7L3.3,359.1L0,374.5h165.4
	L160,350.6z"/>
</svg>
